%time	V(out)	I(I2)
0.000000000000000e+000	-1.032433e+001	0.000000e+000
4.000000000000000e-008	-1.032433e+001	0.000000e+000
4.002441406250000e-008	-1.032433e+001	2.441406e-005
4.007324218750000e-008	-1.032433e+001	7.324219e-005
4.017089843750001e-008	-1.032433e+001	1.708984e-004
4.036621093750000e-008	-1.032433e+001	3.662109e-004
4.039672851562500e-008	-1.032433e+001	3.967285e-004
4.042343139648438e-008	-1.032433e+001	4.234314e-004
4.043368339538575e-008	-1.032433e+001	4.336834e-004
4.044393539428711e-008	-1.032433e+001	4.439354e-004
4.045418739318848e-008	-1.032433e+001	4.541874e-004
4.046443939208985e-008	-1.032433e+001	4.644394e-004
4.047469139099122e-008	-1.032433e+001	4.746914e-004
4.048494338989258e-008	-1.032433e+001	4.849434e-004
4.049519538879395e-008	-1.032433e+001	4.951954e-004
4.055623054504395e-008	-1.032433e+001	5.562305e-004
4.067830085754396e-008	-1.032433e+001	6.783009e-004
4.092244148254396e-008	-1.032433e+001	9.224415e-004
4.116658210754396e-008	-1.032433e+001	1.166582e-003
4.141072273254395e-008	-1.032433e+001	1.410723e-003
4.165486335754395e-008	-1.032433e+001	1.654863e-003
4.189900398254395e-008	-1.032433e+001	1.899004e-003
4.214314460754395e-008	-1.032433e+001	2.143145e-003
4.238728523254395e-008	-1.032433e+001	2.387285e-003
4.250000000000000e-008	-1.032433e+001	2.500000e-003
4.257324218750000e-008	-1.032433e+001	2.573242e-003
4.267089843750000e-008	-1.032433e+001	2.670898e-003
4.286621093750000e-008	-1.032433e+001	2.866211e-003
4.311035156250000e-008	-1.032433e+001	3.110352e-003
4.335449218750000e-008	-1.032433e+001	3.354492e-003
4.359863281250000e-008	-1.032433e+001	3.598633e-003
4.384277343750000e-008	-1.032433e+001	3.842773e-003
4.408691406250000e-008	-1.032433e+001	4.086914e-003
4.433105468750000e-008	-1.032433e+001	4.331055e-003
4.457519531249999e-008	-1.032433e+001	4.575195e-003
4.481933593749999e-008	-1.032433e+001	4.819336e-003
4.500000000000000e-008	-1.032433e+001	5.000000e-003
4.507324218750000e-008	-1.032433e+001	5.073242e-003
4.517089843750000e-008	-1.032433e+001	5.170899e-003
4.536621093750000e-008	-1.032432e+001	5.366211e-003
4.564086914062500e-008	-1.032432e+001	5.640869e-003
4.570190429687500e-008	-1.032432e+001	5.701904e-003
4.582397460937500e-008	-1.032431e+001	5.823974e-003
4.606811523437500e-008	-1.032431e+001	6.068115e-003
4.631225585937500e-008	-1.032429e+001	6.312256e-003
4.655639648437500e-008	-1.032427e+001	6.556396e-003
4.680053710937500e-008	-1.032424e+001	6.800537e-003
4.704467773437500e-008	-1.032420e+001	7.044678e-003
4.728881835937500e-008	-1.032415e+001	7.288818e-003
4.750000000000000e-008	-1.032409e+001	7.500000e-003
4.757324218750000e-008	-1.032406e+001	7.573242e-003
4.767089843750001e-008	-1.032401e+001	7.670898e-003
4.786621093750000e-008	-1.032391e+001	7.866211e-003
4.811035156250000e-008	-1.032374e+001	8.110352e-003
4.835449218750000e-008	-1.032353e+001	8.354492e-003
4.859863281250000e-008	-1.032324e+001	8.598633e-003
4.884277343750000e-008	-1.032287e+001	8.842774e-003
4.908691406250000e-008	-1.032239e+001	9.086914e-003
4.933105468750000e-008	-1.032179e+001	9.331055e-003
4.957519531250000e-008	-1.032102e+001	9.575196e-003
4.981933593750000e-008	-1.032009e+001	9.819336e-003
5.007324218750000e-008	-1.031890e+001	1.007324e-002
5.036621093750000e-008	-1.031708e+001	1.036621e-002
5.061035156250000e-008	-1.031522e+001	1.061035e-002
5.085449218750000e-008	-1.031301e+001	1.085449e-002
5.109863281250000e-008	-1.031035e+001	1.109863e-002
5.134277343750000e-008	-1.030720e+001	1.134277e-002
5.158691406250000e-008	-1.030347e+001	1.158691e-002
5.183105468750000e-008	-1.029910e+001	1.183105e-002
5.207519531250000e-008	-1.029399e+001	1.207520e-002
5.229282924107143e-008	-1.028898e+001	1.229283e-002
5.251046316964286e-008	-1.028305e+001	1.251046e-002
5.272809709821429e-008	-1.027620e+001	1.272810e-002
5.294573102678571e-008	-1.026843e+001	1.294573e-002
5.316336495535714e-008	-1.025974e+001	1.316337e-002
5.338099888392857e-008	-1.025013e+001	1.338100e-002
5.359863281250000e-008	-1.023960e+001	1.359863e-002
5.384277343750000e-008	-1.022618e+001	1.384277e-002
5.408691406250000e-008	-1.021113e+001	1.408691e-002
5.433105468750000e-008	-1.019431e+001	1.433105e-002
5.457519531250000e-008	-1.017560e+001	1.457520e-002
5.481933593750000e-008	-1.015499e+001	1.481934e-002
5.502441406250000e-008	-1.013629e+001	1.502441e-002
5.517089843750001e-008	-1.012149e+001	1.517090e-002
5.536621093750001e-008	-1.010036e+001	1.536621e-002
5.564086914062500e-008	-1.006881e+001	1.564087e-002
5.582397460937501e-008	-1.004528e+001	1.582398e-002
5.631225585937501e-008	-9.975224e+000	1.631226e-002
5.680053710937500e-008	-9.893301e+000	1.680054e-002
5.728881835937500e-008	-9.798194e+000	1.728882e-002
5.751081194196429e-008	-9.750553e+000	1.751081e-002
5.773280552455357e-008	-9.699587e+000	1.773279e-002
5.795479910714286e-008	-9.645298e+000	1.795477e-002
5.817679268973215e-008	-9.587685e+000	1.817676e-002
5.839878627232144e-008	-9.526748e+000	1.839874e-002
5.862077985491072e-008	-9.462488e+000	1.862071e-002
5.884277343750001e-008	-9.394903e+000	1.884269e-002
5.908691406250001e-008	-9.316458e+000	1.908682e-002
5.957519531250001e-008	-9.146414e+000	1.957507e-002
6.000000000000001e-008	-8.985004e+000	1.999985e-002
6.007324218750001e-008	-8.955467e+000	1.999985e-002
6.017089843750001e-008	-8.915314e+000	1.999986e-002
6.036621093750002e-008	-8.832774e+000	1.999987e-002
6.061035156250002e-008	-8.725867e+000	1.999988e-002
6.085449218750003e-008	-8.614507e+000	1.999990e-002
6.109863281250004e-008	-8.498440e+000	1.999991e-002
6.134277343750004e-008	-8.377654e+000	1.999993e-002
6.158691406250005e-008	-8.252149e+000	1.999994e-002
6.183105468750005e-008	-8.121928e+000	1.999996e-002
6.207519531250006e-008	-7.987008e+000	1.999997e-002
6.231933593750006e-008	-7.847711e+000	1.999999e-002
6.250000000000001e-008	-7.742268e+000	2.000000e-002
6.257324218750001e-008	-7.698334e+000	2.000000e-002
6.267089843750002e-008	-7.638990e+000	2.000000e-002
6.286621093750002e-008	-7.518109e+000	2.000000e-002
6.311035156250003e-008	-7.363380e+000	2.000000e-002
6.335449218750003e-008	-7.204387e+000	2.000000e-002
6.359863281250004e-008	-7.040963e+000	2.000000e-002
6.384277343750004e-008	-6.873177e+000	2.000000e-002
6.408691406250005e-008	-6.701105e+000	2.000000e-002
6.457519531250006e-008	-6.345295e+000	2.000000e-002
6.478881835937506e-008	-6.184148e+000	2.000000e-002
6.488037109375006e-008	-6.114063e+000	2.000000e-002
6.524658203125007e-008	-5.827783e+000	2.000000e-002
6.549072265625008e-008	-5.632786e+000	2.000000e-002
6.573486328125008e-008	-5.434140e+000	2.000000e-002
6.597900390625009e-008	-5.231955e+000	2.000000e-002
6.622314453125009e-008	-5.026342e+000	2.000000e-002
6.646728515625010e-008	-4.817416e+000	2.000000e-002
6.671142578125011e-008	-4.605294e+000	2.000000e-002
6.695556640625011e-008	-4.390096e+000	2.000000e-002
6.719970703125012e-008	-4.171941e+000	2.000000e-002
6.744384765625012e-008	-3.950952e+000	2.000000e-002
6.768798828125013e-008	-3.727252e+000	2.000000e-002
6.793212890625014e-008	-3.500968e+000	2.000000e-002
6.817626953125014e-008	-3.272224e+000	2.000000e-002
6.842041015625015e-008	-3.041151e+000	2.000000e-002
6.866455078125015e-008	-2.807876e+000	2.000000e-002
6.890869140625016e-008	-2.572530e+000	2.000000e-002
6.915283203125017e-008	-2.335247e+000	2.000000e-002
6.939697265625017e-008	-2.096160e+000	2.000000e-002
6.964111328125018e-008	-1.855406e+000	2.000000e-002
6.988525390625018e-008	-1.613122e+000	2.000000e-002
7.012939453125019e-008	-1.369448e+000	2.000000e-002
7.037353515625020e-008	-1.124527e+000	2.000000e-002
7.061767578125020e-008	-8.785037e-001	2.000000e-002
7.086181640625021e-008	-6.315258e-001	2.000000e-002
7.110595703125021e-008	-3.837432e-001	2.000000e-002
7.135009765625022e-008	-1.354137e-001	2.000000e-002
7.138061523437522e-008	-1.043281e-001	2.000000e-002
7.145690917968772e-008	-2.655031e-002	2.000000e-002
7.146525267151989e-008	-1.804182e-002	2.000000e-002
7.147359616335205e-008	-9.532854e-003	2.000000e-002
7.148193965518422e-008	-1.023417e-003	2.000000e-002
7.149028314701638e-008	7.486492e-003	2.000000e-002
7.149862663884855e-008	1.599687e-002	2.000000e-002
7.150697013068071e-008	2.450772e-002	2.000000e-002
7.151531362251288e-008	3.301905e-002	2.000000e-002
7.155005461546768e-008	6.846632e-002	2.000000e-002
7.158479560842247e-008	1.039205e-001	2.000000e-002
7.161953660137727e-008	1.393816e-001	2.000000e-002
7.165427759433208e-008	1.748496e-001	2.000000e-002
7.168901858728688e-008	2.103244e-001	2.000000e-002
7.172375958024167e-008	2.458062e-001	2.000000e-002
7.175850057319647e-008	2.812949e-001	2.000000e-002
7.200264119819648e-008	5.307310e-001	2.000000e-002
7.224678182319649e-008	7.801987e-001	2.000000e-002
7.249092244819649e-008	1.029565e+000	2.000000e-002
7.273506307319650e-008	1.278662e+000	2.000000e-002
7.297920369819650e-008	1.527318e+000	2.000000e-002
7.322334432319651e-008	1.775358e+000	2.000000e-002
7.346748494819652e-008	2.022607e+000	2.000000e-002
7.371162557319652e-008	2.268887e+000	2.000000e-002
7.419990682319653e-008	2.757822e+000	2.000000e-002
7.468818807319655e-008	3.240718e+000	2.000000e-002
7.517646932319656e-008	3.716126e+000	2.000000e-002
7.566475057319657e-008	4.182610e+000	2.000000e-002
7.615303182319658e-008	4.638759e+000	2.000000e-002
7.639717244819659e-008	4.862529e+000	2.000000e-002
7.664131307319659e-008	5.083210e+000	2.000000e-002
7.688545369819660e-008	5.300639e+000	2.000000e-002
7.712959432319660e-008	5.514663e+000	2.000000e-002
7.737373494819661e-008	5.725132e+000	2.000000e-002
7.761787557319662e-008	5.931902e+000	2.000000e-002
7.786201619819662e-008	6.134836e+000	2.000000e-002
7.810615682319663e-008	6.333806e+000	2.000000e-002
7.835029744819663e-008	6.528688e+000	2.000000e-002
7.859443807319664e-008	6.719369e+000	2.000000e-002
7.883857869819665e-008	6.905743e+000	2.000000e-002
7.908271932319665e-008	7.087711e+000	2.000000e-002
7.932685994819666e-008	7.265187e+000	2.000000e-002
7.981514119819667e-008	7.606352e+000	2.000000e-002
8.005159069528333e-008	7.765497e+000	2.000000e-002
8.028804019237001e-008	7.919910e+000	2.000000e-002
8.052448968945667e-008	8.069592e+000	2.000000e-002
8.076093918654333e-008	8.214543e+000	2.000000e-002
8.099738868362999e-008	8.354764e+000	2.000000e-002
8.123383818071667e-008	8.490253e+000	2.000000e-002
8.147028767780333e-008	8.621011e+000	2.000000e-002
8.171442830280334e-008	8.751832e+000	2.000000e-002
8.195856892780334e-008	8.877806e+000	2.000000e-002
8.220270955280335e-008	8.998956e+000	2.000000e-002
8.244685017780336e-008	9.115312e+000	2.000000e-002
8.269099080280336e-008	9.226913e+000	2.000000e-002
8.293513142780337e-008	9.333808e+000	2.000000e-002
8.317927205280337e-008	9.436050e+000	2.000000e-002
8.342341267780338e-008	9.533703e+000	2.000000e-002
8.366755330280339e-008	9.626834e+000	2.000000e-002
8.391169392780339e-008	9.715521e+000	2.000000e-002
8.415583455280340e-008	9.799844e+000	2.000000e-002
8.439997517780340e-008	9.879891e+000	2.000000e-002
8.464411580280341e-008	9.955756e+000	2.000000e-002
8.488825642780341e-008	1.002754e+001	2.000000e-002
8.513239705280342e-008	1.009533e+001	2.000000e-002
8.537653767780343e-008	1.015925e+001	2.000000e-002
8.562067830280343e-008	1.021940e+001	2.000000e-002
8.586481892780344e-008	1.027589e+001	2.000000e-002
8.610895955280344e-008	1.032885e+001	2.000000e-002
8.635310017780345e-008	1.037838e+001	2.000000e-002
8.659724080280346e-008	1.042460e+001	2.000000e-002
8.684138142780346e-008	1.046763e+001	2.000000e-002
8.708552205280347e-008	1.050761e+001	2.000000e-002
8.732966267780347e-008	1.054463e+001	2.000000e-002
8.757380330280348e-008	1.057884e+001	2.000000e-002
8.781794392780349e-008	1.061034e+001	2.000000e-002
8.806208455280349e-008	1.063926e+001	2.000000e-002
8.830622517780350e-008	1.066572e+001	2.000000e-002
8.855036580280350e-008	1.068983e+001	2.000000e-002
8.879450642780351e-008	1.071172e+001	2.000000e-002
8.903864705280352e-008	1.073149e+001	2.000000e-002
8.928278767780352e-008	1.074927e+001	2.000000e-002
8.952692830280353e-008	1.076516e+001	2.000000e-002
8.977106892780353e-008	1.077927e+001	2.000000e-002
9.001520955280354e-008	1.079171e+001	2.000000e-002
9.025935017780355e-008	1.080257e+001	2.000000e-002
9.050349080280355e-008	1.081197e+001	2.000000e-002
9.074763142780356e-008	1.081999e+001	2.000000e-002
9.099177205280356e-008	1.082674e+001	2.000000e-002
9.123591267780357e-008	1.083230e+001	2.000000e-002
9.148005330280358e-008	1.083675e+001	2.000000e-002
9.172419392780358e-008	1.084020e+001	2.000000e-002
9.196833455280359e-008	1.084271e+001	2.000000e-002
9.221247517780359e-008	1.084436e+001	2.000000e-002
9.245661580280360e-008	1.084523e+001	2.000000e-002
9.270075642780360e-008	1.084538e+001	2.000000e-002
9.294489705280361e-008	1.084490e+001	2.000000e-002
9.318903767780362e-008	1.084383e+001	2.000000e-002
9.343317830280362e-008	1.084225e+001	2.000000e-002
9.367731892780363e-008	1.084020e+001	2.000000e-002
9.392145955280363e-008	1.083774e+001	2.000000e-002
9.416560017780364e-008	1.083493e+001	2.000000e-002
9.440974080280365e-008	1.083181e+001	2.000000e-002
9.465388142780365e-008	1.082843e+001	2.000000e-002
9.489802205280366e-008	1.082483e+001	2.000000e-002
9.514216267780366e-008	1.082105e+001	2.000000e-002
9.538630330280367e-008	1.081712e+001	2.000000e-002
9.563044392780368e-008	1.081308e+001	2.000000e-002
9.587458455280368e-008	1.080895e+001	2.000000e-002
9.611872517780369e-008	1.080478e+001	2.000000e-002
9.636286580280369e-008	1.080058e+001	2.000000e-002
9.660700642780370e-008	1.079638e+001	2.000000e-002
9.685114705280371e-008	1.079220e+001	2.000000e-002
9.709528767780371e-008	1.078806e+001	2.000000e-002
9.733942830280372e-008	1.078399e+001	2.000000e-002
9.758356892780372e-008	1.077998e+001	2.000000e-002
9.782770955280373e-008	1.077606e+001	2.000000e-002
9.807185017780374e-008	1.077224e+001	2.000000e-002
9.831599080280374e-008	1.076854e+001	2.000000e-002
9.856013142780375e-008	1.076495e+001	2.000000e-002
9.880427205280375e-008	1.076149e+001	2.000000e-002
9.904841267780376e-008	1.075817e+001	2.000000e-002
9.929255330280376e-008	1.075499e+001	2.000000e-002
9.953669392780377e-008	1.075195e+001	2.000000e-002
9.978083455280378e-008	1.074906e+001	2.000000e-002
1.000000000000000e-007	1.074656e+001	2.000000e-002
1.000244140625000e-007	1.074629e+001	1.997559e-002
1.000732421875000e-007	1.074577e+001	1.992676e-002
1.001708984375000e-007	1.074473e+001	1.982910e-002
1.003662109375000e-007	1.074274e+001	1.963379e-002
1.006103515625000e-007	1.074037e+001	1.938965e-002
1.008544921875000e-007	1.073814e+001	1.914551e-002
1.010986328125000e-007	1.073606e+001	1.890137e-002
1.013427734375000e-007	1.073413e+001	1.865723e-002
1.015869140625000e-007	1.073235e+001	1.841309e-002
1.018310546875000e-007	1.073070e+001	1.816894e-002
1.020751953125001e-007	1.072919e+001	1.792480e-002
1.023193359375001e-007	1.072781e+001	1.768066e-002
1.025000000000000e-007	1.072686e+001	1.750000e-002
1.025732421875000e-007	1.072650e+001	1.742676e-002
1.026708984375000e-007	1.072605e+001	1.732910e-002
1.028662109375000e-007	1.072521e+001	1.713379e-002
1.031103515625000e-007	1.072424e+001	1.688965e-002
1.033544921875000e-007	1.072339e+001	1.664551e-002
1.035986328125000e-007	1.072264e+001	1.640137e-002
1.038427734375000e-007	1.072200e+001	1.615723e-002
1.040869140625000e-007	1.072146e+001	1.591309e-002
1.043310546875000e-007	1.072102e+001	1.566895e-002
1.045751953125001e-007	1.072066e+001	1.542480e-002
1.048193359375001e-007	1.072038e+001	1.518066e-002
1.050000000000000e-007	1.072021e+001	1.500000e-002
1.050732421875000e-007	1.072016e+001	1.492676e-002
1.051708984375000e-007	1.072011e+001	1.482910e-002
1.053662109375000e-007	1.072002e+001	1.463379e-002
1.054842335225216e-007	1.072000e+001	1.451577e-002
1.056022561075432e-007	1.071998e+001	1.439774e-002
1.057202786925648e-007	1.071998e+001	1.427972e-002
1.058383012775864e-007	1.071999e+001	1.416170e-002
1.059563238626080e-007	1.072002e+001	1.404368e-002
1.060743464476296e-007	1.072006e+001	1.392565e-002
1.061923690326512e-007	1.072011e+001	1.380763e-002
1.064365096576512e-007	1.072024e+001	1.356349e-002
1.066806502826512e-007	1.072041e+001	1.331935e-002
1.069247909076512e-007	1.072061e+001	1.307521e-002
1.071689315326512e-007	1.072083e+001	1.283107e-002
1.074130721576512e-007	1.072106e+001	1.258693e-002
1.075244140625000e-007	1.072117e+001	1.247559e-002
1.076708984375000e-007	1.072131e+001	1.232910e-002
1.078662109375000e-007	1.072149e+001	1.213379e-002
1.081103515625000e-007	1.072169e+001	1.188965e-002
1.083544921875000e-007	1.072186e+001	1.164551e-002
1.085986328125000e-007	1.072198e+001	1.140137e-002
1.088427734375000e-007	1.072202e+001	1.115723e-002
1.090869140625000e-007	1.072197e+001	1.091309e-002
1.093310546875001e-007	1.072179e+001	1.066895e-002
1.095751953125001e-007	1.072146e+001	1.042480e-002
1.098193359375001e-007	1.072096e+001	1.018066e-002
1.100244140625000e-007	1.072040e+001	9.975586e-003
1.101708984375000e-007	1.071984e+001	9.829101e-003
1.103662109375000e-007	1.071891e+001	9.633789e-003
1.106103515625000e-007	1.071748e+001	9.389648e-003
1.108544921875000e-007	1.071568e+001	9.145508e-003
1.110986328125000e-007	1.071344e+001	8.901367e-003
1.113427734375000e-007	1.071069e+001	8.657226e-003
1.115869140625000e-007	1.070735e+001	8.413086e-003
1.118310546875001e-007	1.070335e+001	8.168945e-003
1.123193359375001e-007	1.069310e+001	7.680664e-003
1.124672154017858e-007	1.068938e+001	7.532784e-003
1.126150948660715e-007	1.068522e+001	7.384905e-003
1.127629743303572e-007	1.068063e+001	7.237026e-003
1.129108537946429e-007	1.067559e+001	7.089146e-003
1.130587332589286e-007	1.067011e+001	6.941267e-003
1.132066127232143e-007	1.066418e+001	6.793387e-003
1.133544921875000e-007	1.065782e+001	6.645508e-003
1.135986328125000e-007	1.064618e+001	6.401367e-003
1.138427734375000e-007	1.063303e+001	6.157226e-003
1.141174316406250e-007	1.061667e+001	5.882568e-003
1.142242431640625e-007	1.060956e+001	5.775757e-003
1.142852783203125e-007	1.060529e+001	5.714722e-003
1.144378662109375e-007	1.059425e+001	5.562134e-003
1.146209716796875e-007	1.057968e+001	5.379028e-003
1.148651123046875e-007	1.055873e+001	5.134888e-003
1.150000000000000e-007	1.054653e+001	5.000000e-003
1.150732421875000e-007	1.053940e+001	4.926758e-003
1.151708984375000e-007	1.052949e+001	4.829102e-003
1.153662109375000e-007	1.050848e+001	4.633789e-003
1.156103515625000e-007	1.048018e+001	4.389648e-003
1.158544921875000e-007	1.044935e+001	4.145508e-003
1.163427734375000e-007	1.037915e+001	3.657226e-003
1.168310546875000e-007	1.029662e+001	3.168945e-003
1.170751953125001e-007	1.025040e+001	2.924805e-003
1.172928292410715e-007	1.020671e+001	2.707172e-003
1.175104631696429e-007	1.015987e+001	2.489542e-003
1.177280970982143e-007	1.010987e+001	2.271915e-003
1.179457310267858e-007	1.005672e+001	2.054291e-003
1.181633649553572e-007	1.000041e+001	1.836669e-003
1.183809988839286e-007	9.940950e+000	1.619050e-003
1.185986328125000e-007	9.878334e+000	1.401434e-003
1.188427734375000e-007	9.804186e+000	1.157308e-003
1.190869140625000e-007	9.725755e+000	9.131828e-004
1.195751953125001e-007	9.555721e+000	4.249313e-004
1.200000000000000e-007	9.394308e+000	1.525879e-007
1.200732421875000e-007	9.364769e+000	1.481175e-007
1.201708984375000e-007	9.324611e+000	1.421571e-007
1.203662109375000e-007	9.242062e+000	1.302361e-007
1.206103515625000e-007	9.135139e+000	1.153350e-007
1.208544921875000e-007	9.023762e+000	1.004338e-007
1.210986328125000e-007	8.907675e+000	8.553266e-008
1.213427734375000e-007	8.786868e+000	7.063150e-008
1.215869140625000e-007	8.661339e+000	5.573034e-008
1.218310546875000e-007	8.531093e+000	4.082918e-008
1.220751953125000e-007	8.396146e+000	2.592802e-008
1.223193359375000e-007	8.256822e+000	1.102686e-008
1.225000000000000e-007	8.151358e+000	0.000000e+000
1.226708984375000e-007	8.048059e+000	0.000000e+000
1.228662109375000e-007	7.927155e+000	0.000000e+000
1.231103515625000e-007	7.772398e+000	0.000000e+000
1.233544921875000e-007	7.613376e+000	0.000000e+000
1.235986328125000e-007	7.449924e+000	0.000000e+000
1.238427734375000e-007	7.282110e+000	0.000000e+000
1.240869140625000e-007	7.110011e+000	0.000000e+000
1.243310546875000e-007	6.933706e+000	0.000000e+000
1.245751953125000e-007	6.753283e+000	0.000000e+000
1.250329589843750e-007	6.405062e+000	0.000000e+000
1.251757376534599e-007	6.293076e+000	0.000000e+000
1.253185163225447e-007	6.179892e+000	0.000000e+000
1.254612949916295e-007	6.065509e+000	0.000000e+000
1.256040736607143e-007	5.949926e+000	0.000000e+000
1.257468523297992e-007	5.833145e+000	0.000000e+000
1.258896309988840e-007	5.715166e+000	0.000000e+000
1.260324096679688e-007	5.595987e+000	0.000000e+000
1.262765502929688e-007	5.389622e+000	0.000000e+000
1.265206909179688e-007	5.179972e+000	0.000000e+000
1.267648315429688e-007	4.967152e+000	0.000000e+000
1.270089721679688e-007	4.751284e+000	0.000000e+000
1.272531127929688e-007	4.532486e+000	0.000000e+000
1.274972534179688e-007	4.310883e+000	0.000000e+000
1.277413940429689e-007	4.086598e+000	0.000000e+000
1.279855346679689e-007	3.859757e+000	0.000000e+000
1.282296752929689e-007	3.630487e+000	0.000000e+000
1.284738159179689e-007	3.398915e+000	0.000000e+000
1.287179565429689e-007	3.165172e+000	0.000000e+000
1.289620971679689e-007	2.929389e+000	0.000000e+000
1.292062377929689e-007	2.691698e+000	0.000000e+000
1.294503784179689e-007	2.452233e+000	0.000000e+000
1.296945190429689e-007	2.211133e+000	0.000000e+000
1.299386596679689e-007	1.968534e+000	0.000000e+000
1.301828002929689e-007	1.724577e+000	0.000000e+000
1.304269409179689e-007	1.479405e+000	0.000000e+000
1.306710815429689e-007	1.233164e+000	0.000000e+000
1.309152221679689e-007	9.860013e-001	0.000000e+000
1.311593627929689e-007	7.380679e-001	0.000000e+000
1.314035034179689e-007	4.895171e-001	0.000000e+000
1.316476440429689e-007	2.405054e-001	0.000000e+000
1.318955993652346e-007	-1.267081e-002	0.000000e+000
1.319004365296966e-007	-1.761353e-002	0.000000e+000
1.319052736941586e-007	-2.255631e-002	0.000000e+000
1.319101108586206e-007	-2.749914e-002	0.000000e+000
1.319149480230826e-007	-3.244202e-002	0.000000e+000
1.319197851875446e-007	-3.738496e-002	0.000000e+000
1.319246223520066e-007	-4.232796e-002	0.000000e+000
1.319294595164686e-007	-4.727101e-002	0.000000e+000
1.319752358836561e-007	-9.405175e-002	0.000000e+000
1.320362710399061e-007	-1.564298e-001	0.000000e+000
1.321583413524061e-007	-2.811790e-001	0.000000e+000
1.324024819774061e-007	-5.305962e-001	0.000000e+000
1.326466226024061e-007	-7.798046e-001	0.000000e+000
1.328907632274061e-007	-1.028634e+000	0.000000e+000
1.331349038524061e-007	-1.276911e+000	0.000000e+000
1.333790444774061e-007	-1.524460e+000	0.000000e+000
1.336231851024061e-007	-1.771105e+000	0.000000e+000
1.341114663524061e-007	-2.260966e+000	0.000000e+000
1.343556069774061e-007	-2.503820e+000	0.000000e+000
1.345997476024061e-007	-2.745049e+000	0.000000e+000
1.348438882274061e-007	-2.984473e+000	0.000000e+000
1.350880288524062e-007	-3.221908e+000	0.000000e+000
1.353321694774062e-007	-3.457177e+000	0.000000e+000
1.355763101024062e-007	-3.690101e+000	0.000000e+000
1.358204507274062e-007	-3.920504e+000	0.000000e+000
1.360645913524062e-007	-4.148212e+000	0.000000e+000
1.365528726024062e-007	-4.594870e+000	0.000000e+000
1.370411538524062e-007	-5.028760e+000	0.000000e+000
1.375294351024062e-007	-5.448650e+000	0.000000e+000
1.380177163524062e-007	-5.853401e+000	0.000000e+000
1.385059976024062e-007	-6.241985e+000	0.000000e+000
1.389942788524062e-007	-6.613500e+000	0.000000e+000
1.394825601024063e-007	-6.967175e+000	0.000000e+000
1.399708413524063e-007	-7.302390e+000	0.000000e+000
1.404591226024063e-007	-7.618670e+000	0.000000e+000
1.409474038524063e-007	-7.915694e+000	0.000000e+000
1.414356851024063e-007	-8.193298e+000	0.000000e+000
1.419239663524063e-007	-8.451468e+000	0.000000e+000
1.424122476024063e-007	-8.690332e+000	0.000000e+000
1.429005288524063e-007	-8.910163e+000	0.000000e+000
1.433888101024064e-007	-9.111359e+000	0.000000e+000
1.438770913524064e-007	-9.294437e+000	0.000000e+000
1.443653726024064e-007	-9.460021e+000	0.000000e+000
1.446095132274064e-007	-9.536472e+000	0.000000e+000
1.448536538524064e-007	-9.608824e+000	0.000000e+000
1.450977944774064e-007	-9.677177e+000	0.000000e+000
1.453419351024064e-007	-9.741638e+000	0.000000e+000
1.455860757274064e-007	-9.802315e+000	0.000000e+000
1.458302163524064e-007	-9.859320e+000	0.000000e+000
1.460743569774064e-007	-9.912766e+000	0.000000e+000
1.463184976024064e-007	-9.962772e+000	0.000000e+000
1.465626382274064e-007	-1.000945e+001	0.000000e+000
1.468067788524064e-007	-1.005293e+001	0.000000e+000
1.470509194774064e-007	-1.009333e+001	0.000000e+000
1.472950601024064e-007	-1.013077e+001	0.000000e+000
1.475392007274065e-007	-1.016536e+001	0.000000e+000
1.477833413524065e-007	-1.019724e+001	0.000000e+000
1.480274819774065e-007	-1.022652e+001	0.000000e+000
1.482716226024065e-007	-1.025331e+001	0.000000e+000
1.485157632274065e-007	-1.027775e+001	0.000000e+000
1.487599038524065e-007	-1.029995e+001	0.000000e+000
1.490040444774065e-007	-1.032001e+001	0.000000e+000
1.492481851024065e-007	-1.033807e+001	0.000000e+000
1.494923257274065e-007	-1.035422e+001	0.000000e+000
1.497364663524065e-007	-1.036857e+001	0.000000e+000
1.499806069774065e-007	-1.038124e+001	0.000000e+000
1.502247476024065e-007	-1.039232e+001	0.000000e+000
1.504688882274065e-007	-1.040192e+001	0.000000e+000
1.507130288524065e-007	-1.041013e+001	0.000000e+000
1.509571694774065e-007	-1.041705e+001	0.000000e+000
1.512013101024065e-007	-1.042277e+001	0.000000e+000
1.514454507274066e-007	-1.042737e+001	0.000000e+000
1.516895913524066e-007	-1.043095e+001	0.000000e+000
1.519337319774066e-007	-1.043359e+001	0.000000e+000
1.521778726024066e-007	-1.043536e+001	0.000000e+000
1.524220132274066e-007	-1.043633e+001	0.000000e+000
1.526661538524066e-007	-1.043658e+001	0.000000e+000
1.529102944774066e-007	-1.043618e+001	0.000000e+000
1.531544351024066e-007	-1.043519e+001	0.000000e+000
1.533985757274066e-007	-1.043368e+001	0.000000e+000
1.536427163524066e-007	-1.043169e+001	0.000000e+000
1.538868569774066e-007	-1.042929e+001	0.000000e+000
1.541309976024066e-007	-1.042653e+001	0.000000e+000
1.543751382274066e-007	-1.042345e+001	0.000000e+000
1.546192788524066e-007	-1.042010e+001	0.000000e+000
1.548634194774066e-007	-1.041653e+001	0.000000e+000
1.551075601024066e-007	-1.041276e+001	0.000000e+000
1.553517007274066e-007	-1.040885e+001	0.000000e+000
1.555958413524067e-007	-1.040482e+001	0.000000e+000
1.558399819774067e-007	-1.040071e+001	0.000000e+000
1.560841226024067e-007	-1.039654e+001	0.000000e+000
1.563282632274067e-007	-1.039235e+001	0.000000e+000
1.565724038524067e-007	-1.038815e+001	0.000000e+000
1.568165444774067e-007	-1.038396e+001	0.000000e+000
1.570606851024067e-007	-1.037982e+001	0.000000e+000
1.573048257274067e-007	-1.037573e+001	0.000000e+000
1.575489663524067e-007	-1.037171e+001	0.000000e+000
1.577931069774067e-007	-1.036778e+001	0.000000e+000
1.580372476024067e-007	-1.036395e+001	0.000000e+000
1.582813882274067e-007	-1.036022e+001	0.000000e+000
1.585255288524067e-007	-1.035662e+001	0.000000e+000
1.587696694774067e-007	-1.035314e+001	0.000000e+000
1.590138101024067e-007	-1.034980e+001	0.000000e+000
1.592579507274067e-007	-1.034660e+001	0.000000e+000
1.595020913524067e-007	-1.034354e+001	0.000000e+000
1.597462319774068e-007	-1.034063e+001	0.000000e+000
1.600000000000000e-007	-1.033773e+001	0.000000e+000
1.600192547951865e-007	-1.033752e+001	1.925480e-005
1.600577643855595e-007	-1.033710e+001	5.776438e-005
1.601347835663055e-007	-1.033628e+001	1.347836e-004
1.602888219277975e-007	-1.033467e+001	2.888219e-004
1.603193395059225e-007	-1.033435e+001	3.193395e-004
1.603803746621725e-007	-1.033374e+001	3.803747e-004
1.603956334512350e-007	-1.033358e+001	3.956335e-004
1.604271047036764e-007	-1.033327e+001	4.271047e-004
1.604367318100764e-007	-1.033318e+001	4.367318e-004
1.604463589164763e-007	-1.033308e+001	4.463589e-004
1.604559860228762e-007	-1.033299e+001	4.559860e-004
1.604656131292762e-007	-1.033289e+001	4.656131e-004
1.604752402356761e-007	-1.033280e+001	4.752402e-004
1.604848673420761e-007	-1.033270e+001	4.848673e-004
1.604944944484760e-007	-1.033261e+001	4.944945e-004
1.605555296047260e-007	-1.033203e+001	5.555296e-004
1.606775999172260e-007	-1.033089e+001	6.775999e-004
1.609217405422260e-007	-1.032872e+001	9.217405e-004
1.611658811672260e-007	-1.032669e+001	1.165881e-003
1.614100217922260e-007	-1.032480e+001	1.410022e-003
1.616541624172260e-007	-1.032305e+001	1.654162e-003
1.618983030422260e-007	-1.032144e+001	1.898303e-003
1.621424436672260e-007	-1.031997e+001	2.142444e-003
1.623865842922260e-007	-1.031862e+001	2.386584e-003
1.625000000000000e-007	-1.031803e+001	2.500000e-003
1.625732421875000e-007	-1.031767e+001	2.573242e-003
1.626708984375000e-007	-1.031722e+001	2.670898e-003
1.628662109375000e-007	-1.031637e+001	2.866211e-003
1.631103515625000e-007	-1.031541e+001	3.110352e-003
1.633544921875000e-007	-1.031456e+001	3.354492e-003
1.635986328125000e-007	-1.031382e+001	3.598633e-003
1.638427734375000e-007	-1.031318e+001	3.842773e-003
1.640869140625000e-007	-1.031264e+001	4.086914e-003
1.643310546875000e-007	-1.031219e+001	4.331055e-003
1.645751953125000e-007	-1.031183e+001	4.575195e-003
1.648193359375001e-007	-1.031155e+001	4.819336e-003
1.650000000000000e-007	-1.031138e+001	5.000000e-003
1.650732421875000e-007	-1.031133e+001	5.073242e-003
1.651708984375000e-007	-1.031128e+001	5.170899e-003
1.653700256347656e-007	-1.031119e+001	5.370026e-003
1.654773404382702e-007	-1.031117e+001	5.477341e-003
1.655846552417747e-007	-1.031116e+001	5.584656e-003
1.656919700452792e-007	-1.031116e+001	5.691970e-003
1.657992848487837e-007	-1.031117e+001	5.799285e-003
1.659065996522882e-007	-1.031119e+001	5.906600e-003
1.660139144557927e-007	-1.031122e+001	6.013915e-003
1.661212292592972e-007	-1.031126e+001	6.121229e-003
1.663653698842972e-007	-1.031137e+001	6.365370e-003
1.666095105092973e-007	-1.031153e+001	6.609511e-003
1.668536511342973e-007	-1.031172e+001	6.853651e-003
1.670977917592973e-007	-1.031194e+001	7.097792e-003
1.673419323842973e-007	-1.031217e+001	7.341933e-003
1.675000000000000e-007	-1.031232e+001	7.500000e-003
1.675732421875000e-007	-1.031239e+001	7.573242e-003
1.676708984375000e-007	-1.031248e+001	7.670898e-003
1.678662109375000e-007	-1.031266e+001	7.866211e-003
1.681103515625000e-007	-1.031287e+001	8.110352e-003
1.683544921875000e-007	-1.031304e+001	8.354492e-003
1.685986328125000e-007	-1.031316e+001	8.598633e-003
1.688427734375000e-007	-1.031320e+001	8.842774e-003
1.690869140625000e-007	-1.031315e+001	9.086914e-003
1.693310546875000e-007	-1.031297e+001	9.331055e-003
1.695751953125001e-007	-1.031264e+001	9.575196e-003
1.698193359375001e-007	-1.031214e+001	9.819336e-003
1.700732421875000e-007	-1.031141e+001	1.007324e-002
1.703662109375000e-007	-1.031010e+001	1.036621e-002
1.706103515625000e-007	-1.030867e+001	1.061035e-002
1.708544921875000e-007	-1.030687e+001	1.085449e-002
1.710986328125000e-007	-1.030463e+001	1.109863e-002
1.713427734375000e-007	-1.030187e+001	1.134277e-002
1.715869140625000e-007	-1.029854e+001	1.158691e-002
1.718310546875000e-007	-1.029454e+001	1.183105e-002
1.720751953125000e-007	-1.028980e+001	1.207520e-002
1.722928292410715e-007	-1.028511e+001	1.229283e-002
1.725104631696429e-007	-1.027948e+001	1.251046e-002
1.727280970982143e-007	-1.027293e+001	1.272810e-002
1.729457310267857e-007	-1.026544e+001	1.294573e-002
1.731633649553572e-007	-1.025702e+001	1.316337e-002
1.733809988839286e-007	-1.024767e+001	1.338100e-002
1.735986328125000e-007	-1.023738e+001	1.359863e-002
1.738427734375000e-007	-1.022422e+001	1.384277e-002
1.740869140625000e-007	-1.020942e+001	1.408691e-002
1.743310546875000e-007	-1.019283e+001	1.433105e-002
1.745751953125000e-007	-1.017433e+001	1.457520e-002
1.748193359375000e-007	-1.015393e+001	1.481934e-002
1.750244140625000e-007	-1.013539e+001	1.502441e-002
1.751708984375000e-007	-1.012070e+001	1.517090e-002
1.753662109375000e-007	-1.009970e+001	1.536621e-002
1.756408691406250e-007	-1.006833e+001	1.564087e-002
1.758239746093750e-007	-1.004491e+001	1.582398e-002
1.763122558593750e-007	-9.975101e+000	1.631226e-002
1.768005371093750e-007	-9.893381e+000	1.680054e-002
1.772888183593750e-007	-9.798435e+000	1.728882e-002
1.775108119419643e-007	-9.750853e+000	1.751081e-002
1.777328055245536e-007	-9.699939e+000	1.773279e-002
1.779547991071429e-007	-9.645696e+000	1.795477e-002
1.781767926897322e-007	-9.588121e+000	1.817676e-002
1.783987862723214e-007	-9.527216e+000	1.839874e-002
1.786207798549107e-007	-9.462981e+000	1.862071e-002
1.788427734375000e-007	-9.395414e+000	1.884269e-002
1.790869140625000e-007	-9.316983e+000	1.908682e-002
1.795751953125000e-007	-9.146952e+000	1.957507e-002
1.800000000000000e-007	-8.985539e+000	1.999985e-002
1.800732421875000e-007	-8.956000e+000	1.999985e-002
1.801708984375000e-007	-8.915842e+000	1.999986e-002
1.803662109375000e-007	-8.833295e+000	1.999987e-002
1.806103515625000e-007	-8.726373e+000	1.999988e-002
1.808544921875000e-007	-8.614995e+000	1.999990e-002
1.810986328125000e-007	-8.498908e+000	1.999991e-002
1.813427734375000e-007	-8.378101e+000	1.999993e-002
1.815869140625000e-007	-8.252572e+000	1.999994e-002
1.818310546875000e-007	-8.122327e+000	1.999996e-002
1.820751953125000e-007	-7.987380e+000	1.999997e-002
1.823193359375000e-007	-7.848055e+000	1.999999e-002
1.825000000000000e-007	-7.742591e+000	2.000000e-002
1.825732421875000e-007	-7.698648e+000	2.000000e-002
1.826708984375000e-007	-7.639293e+000	2.000000e-002
1.828662109375000e-007	-7.518389e+000	2.000000e-002
1.831103515625000e-007	-7.363631e+000	2.000000e-002
1.833544921875000e-007	-7.204608e+000	2.000000e-002
1.835986328125000e-007	-7.041156e+000	2.000000e-002
1.838427734375000e-007	-6.873342e+000	2.000000e-002
1.840869140625000e-007	-6.701241e+000	2.000000e-002
1.845751953125000e-007	-6.345378e+000	2.000000e-002
1.847888183593750e-007	-6.184210e+000	2.000000e-002
1.848803710937501e-007	-6.114115e+000	2.000000e-002
1.852465820312501e-007	-5.827800e+000	2.000000e-002
1.854907226562501e-007	-5.632781e+000	2.000000e-002
1.857348632812501e-007	-5.434114e+000	2.000000e-002
1.859790039062501e-007	-5.231908e+000	2.000000e-002
1.862231445312501e-007	-5.026277e+000	2.000000e-002
1.864672851562501e-007	-4.817334e+000	2.000000e-002
1.867114257812501e-007	-4.605197e+000	2.000000e-002
1.869555664062501e-007	-4.389984e+000	2.000000e-002
1.871997070312501e-007	-4.171816e+000	2.000000e-002
1.874438476562501e-007	-3.950815e+000	2.000000e-002
1.876879882812501e-007	-3.727106e+000	2.000000e-002
1.879321289062501e-007	-3.500812e+000	2.000000e-002
1.881762695312501e-007	-3.272061e+000	2.000000e-002
1.884204101562501e-007	-3.040981e+000	2.000000e-002
1.886645507812501e-007	-2.807701e+000	2.000000e-002
1.889086914062501e-007	-2.572351e+000	2.000000e-002
1.891528320312501e-007	-2.335065e+000	2.000000e-002
1.893969726562502e-007	-2.095977e+000	2.000000e-002
1.896411132812502e-007	-1.855221e+000	2.000000e-002
1.898852539062502e-007	-1.612937e+000	2.000000e-002
1.901293945312502e-007	-1.369264e+000	2.000000e-002
1.903735351562502e-007	-1.124346e+000	2.000000e-002
1.906176757812502e-007	-8.783251e-001	2.000000e-002
1.908618164062502e-007	-6.313506e-001	2.000000e-002
1.911059570312502e-007	-3.835722e-001	2.000000e-002
1.913500976562502e-007	-1.352474e-001	2.000000e-002
1.913806152343752e-007	-1.041623e-001	2.000000e-002
1.914569091796877e-007	-2.638622e-002	2.000000e-002
1.914652297377015e-007	-1.790129e-002	2.000000e-002
1.914735502957152e-007	-9.415900e-003	2.000000e-002
1.914818708537290e-007	-9.300389e-004	2.000000e-002
1.914901914117428e-007	7.556290e-003	2.000000e-002
1.914985119697565e-007	1.604309e-002	2.000000e-002
1.915068325277703e-007	2.453035e-002	2.000000e-002
1.915151530857841e-007	3.301809e-002	2.000000e-002
1.915498940787389e-007	6.846454e-002	2.000000e-002
1.915846350716937e-007	1.039179e-001	2.000000e-002
1.916193760646485e-007	1.393781e-001	2.000000e-002
1.916541170576033e-007	1.748452e-001	2.000000e-002
1.916888580505581e-007	2.103193e-001	2.000000e-002
1.917235990435129e-007	2.458002e-001	2.000000e-002
1.917583400364677e-007	2.812880e-001	2.000000e-002
1.920024806614677e-007	5.307178e-001	2.000000e-002
1.922466212864677e-007	7.801789e-001	2.000000e-002
1.924907619114677e-007	1.029539e+000	2.000000e-002
1.927349025364677e-007	1.278629e+000	2.000000e-002
1.929790431614677e-007	1.527277e+000	2.000000e-002
1.932231837864677e-007	1.775310e+000	2.000000e-002
1.934673244114677e-007	2.022551e+000	2.000000e-002
1.937114650364677e-007	2.268824e+000	2.000000e-002
1.941997462864677e-007	2.757744e+000	2.000000e-002
1.946880275364677e-007	3.240626e+000	2.000000e-002
1.951763087864677e-007	3.716021e+000	2.000000e-002
1.956645900364678e-007	4.182491e+000	2.000000e-002
1.961528712864678e-007	4.638628e+000	2.000000e-002
1.963970119114678e-007	4.862393e+000	2.000000e-002
1.966411525364678e-007	5.083068e+000	2.000000e-002
1.968852931614678e-007	5.300493e+000	2.000000e-002
1.971294337864678e-007	5.514513e+000	2.000000e-002
1.973735744114678e-007	5.724977e+000	2.000000e-002
1.976177150364678e-007	5.931743e+000	2.000000e-002
1.978618556614678e-007	6.134674e+000	2.000000e-002
1.981059962864678e-007	6.333641e+000	2.000000e-002
1.983501369114678e-007	6.528520e+000	2.000000e-002
1.985942775364678e-007	6.719199e+000	2.000000e-002
1.988384181614678e-007	6.905570e+000	2.000000e-002
1.990825587864678e-007	7.087537e+000	2.000000e-002
1.993266994114678e-007	7.265012e+000	2.000000e-002
1.998149806614679e-007	7.606175e+000	2.000000e-002
2.000513556527486e-007	7.765233e+000	2.000000e-002
2.002877306440293e-007	7.919574e+000	2.000000e-002
2.005241056353100e-007	8.069200e+000	2.000000e-002
2.007604806265906e-007	8.214111e+000	2.000000e-002
2.009968556178714e-007	8.354307e+000	2.000000e-002
2.012332306091520e-007	8.489787e+000	2.000000e-002
2.014696056004327e-007	8.620551e+000	2.000000e-002
2.017137462254327e-007	8.751384e+000	2.000000e-002
2.019578868504328e-007	8.877370e+000	2.000000e-002
2.022020274754328e-007	8.998531e+000	2.000000e-002
2.024461681004328e-007	9.114901e+000	2.000000e-002
2.026903087254328e-007	9.226514e+000	2.000000e-002
2.029344493504328e-007	9.333421e+000	2.000000e-002
2.031785899754328e-007	9.435675e+000	2.000000e-002
2.034227306004328e-007	9.533340e+000	2.000000e-002
2.036668712254328e-007	9.626484e+000	2.000000e-002
2.039110118504328e-007	9.715182e+000	2.000000e-002
2.041551524754328e-007	9.799518e+000	2.000000e-002
2.043992931004328e-007	9.879577e+000	2.000000e-002
2.046434337254328e-007	9.955453e+000	2.000000e-002
2.048875743504328e-007	1.002724e+001	2.000000e-002
2.051317149754328e-007	1.009505e+001	2.000000e-002
2.053758556004328e-007	1.015898e+001	2.000000e-002
2.056199962254328e-007	1.021914e+001	2.000000e-002
2.058641368504328e-007	1.027565e+001	2.000000e-002
2.061082774754329e-007	1.032861e+001	2.000000e-002
2.063524181004329e-007	1.037815e+001	2.000000e-002
2.065965587254329e-007	1.042438e+001	2.000000e-002
2.068406993504329e-007	1.046743e+001	2.000000e-002
2.070848399754329e-007	1.050741e+001	2.000000e-002
2.073289806004329e-007	1.054444e+001	2.000000e-002
2.075731212254329e-007	1.057866e+001	2.000000e-002
2.078172618504329e-007	1.061017e+001	2.000000e-002
2.080614024754329e-007	1.063909e+001	2.000000e-002
2.083055431004329e-007	1.066556e+001	2.000000e-002
2.085496837254329e-007	1.068968e+001	2.000000e-002
2.087938243504329e-007	1.071158e+001	2.000000e-002
2.090379649754329e-007	1.073136e+001	2.000000e-002
2.092821056004329e-007	1.074914e+001	2.000000e-002
2.095262462254329e-007	1.076504e+001	2.000000e-002
2.097703868504329e-007	1.077915e+001	2.000000e-002
2.100145274754330e-007	1.079160e+001	2.000000e-002
2.102586681004330e-007	1.080247e+001	2.000000e-002
2.105028087254330e-007	1.081187e+001	2.000000e-002
2.107469493504330e-007	1.081990e+001	2.000000e-002
2.109910899754330e-007	1.082664e+001	2.000000e-002
2.112352306004330e-007	1.083221e+001	2.000000e-002
2.114793712254330e-007	1.083667e+001	2.000000e-002
2.117235118504330e-007	1.084011e+001	2.000000e-002
2.119676524754330e-007	1.084263e+001	2.000000e-002
2.122117931004330e-007	1.084428e+001	2.000000e-002
2.124559337254330e-007	1.084515e+001	2.000000e-002
2.127000743504330e-007	1.084531e+001	2.000000e-002
2.129442149754330e-007	1.084483e+001	2.000000e-002
2.131883556004330e-007	1.084376e+001	2.000000e-002
2.134324962254330e-007	1.084218e+001	2.000000e-002
2.136766368504330e-007	1.084014e+001	2.000000e-002
2.139207774754330e-007	1.083768e+001	2.000000e-002
2.141649181004331e-007	1.083487e+001	2.000000e-002
2.144090587254331e-007	1.083176e+001	2.000000e-002
2.146531993504331e-007	1.082837e+001	2.000000e-002
2.148973399754331e-007	1.082477e+001	2.000000e-002
2.151414806004331e-007	1.082099e+001	2.000000e-002
2.153856212254331e-007	1.081706e+001	2.000000e-002
2.156297618504331e-007	1.081302e+001	2.000000e-002
2.158739024754331e-007	1.080890e+001	2.000000e-002
2.161180431004331e-007	1.080472e+001	2.000000e-002
2.163621837254331e-007	1.080053e+001	2.000000e-002
2.166063243504331e-007	1.079633e+001	2.000000e-002
2.168504649754331e-007	1.079215e+001	2.000000e-002
2.170946056004331e-007	1.078801e+001	2.000000e-002
2.173387462254331e-007	1.078393e+001	2.000000e-002
2.175828868504331e-007	1.077992e+001	2.000000e-002
2.178270274754331e-007	1.077600e+001	2.000000e-002
2.180711681004331e-007	1.077219e+001	2.000000e-002
2.183153087254332e-007	1.076848e+001	2.000000e-002
2.185594493504332e-007	1.076489e+001	2.000000e-002
2.188035899754332e-007	1.076144e+001	2.000000e-002
2.190477306004332e-007	1.075811e+001	2.000000e-002
2.192918712254332e-007	1.075493e+001	2.000000e-002
2.195360118504332e-007	1.075189e+001	2.000000e-002
2.197801524754332e-007	1.074900e+001	2.000000e-002
2.200242931004332e-007	1.074626e+001	2.000000e-002
2.202684337254332e-007	1.074368e+001	2.000000e-002
2.205125743504332e-007	1.074124e+001	2.000000e-002
2.207567149754332e-007	1.073895e+001	2.000000e-002
2.210008556004332e-007	1.073681e+001	2.000000e-002
2.212449962254332e-007	1.073482e+001	2.000000e-002
2.214891368504332e-007	1.073298e+001	2.000000e-002
2.217332774754332e-007	1.073127e+001	2.000000e-002
2.219774181004332e-007	1.072971e+001	2.000000e-002
2.222215587254332e-007	1.072829e+001	2.000000e-002
2.224656993504333e-007	1.072699e+001	2.000000e-002
2.227098399754333e-007	1.072582e+001	2.000000e-002
2.229539806004333e-007	1.072478e+001	2.000000e-002
2.231981212254333e-007	1.072385e+001	2.000000e-002
2.234422618504333e-007	1.072304e+001	2.000000e-002
2.236864024754333e-007	1.072233e+001	2.000000e-002
2.239305431004333e-007	1.072173e+001	2.000000e-002
2.241746837254333e-007	1.072122e+001	2.000000e-002
2.244188243504333e-007	1.072081e+001	2.000000e-002
2.246629649754333e-007	1.072048e+001	2.000000e-002
2.249071056004333e-007	1.072023e+001	2.000000e-002
2.251512462254333e-007	1.072006e+001	2.000000e-002
2.253953868504333e-007	1.071996e+001	2.000000e-002
2.256395274754333e-007	1.071993e+001	2.000000e-002
2.258836681004333e-007	1.071996e+001	2.000000e-002
2.261278087254333e-007	1.072004e+001	2.000000e-002
2.263719493504333e-007	1.072017e+001	2.000000e-002
2.266160899754334e-007	1.072035e+001	2.000000e-002
2.268602306004334e-007	1.072057e+001	2.000000e-002
2.271043712254334e-007	1.072083e+001	2.000000e-002
2.273485118504334e-007	1.072112e+001	2.000000e-002
2.275926524754334e-007	1.072145e+001	2.000000e-002
2.278367931004334e-007	1.072179e+001	2.000000e-002
2.283250743504334e-007	1.072255e+001	2.000000e-002
2.288133556004334e-007	1.072336e+001	2.000000e-002
2.290574962254334e-007	1.072378e+001	2.000000e-002
2.293016368504334e-007	1.072421e+001	2.000000e-002
2.295457774754334e-007	1.072465e+001	2.000000e-002
2.297899181004334e-007	1.072508e+001	2.000000e-002
2.300340587254334e-007	1.072551e+001	2.000000e-002
2.302781993504334e-007	1.072594e+001	2.000000e-002
2.305223399754334e-007	1.072637e+001	2.000000e-002
2.307664806004335e-007	1.072679e+001	2.000000e-002
2.310106212254335e-007	1.072720e+001	2.000000e-002
2.312547618504335e-007	1.072760e+001	2.000000e-002
2.314989024754335e-007	1.072799e+001	2.000000e-002
2.317430431004335e-007	1.072838e+001	2.000000e-002
2.322313243504335e-007	1.072910e+001	2.000000e-002
2.327196056004335e-007	1.072977e+001	2.000000e-002
2.332078868504335e-007	1.073039e+001	2.000000e-002
2.336961681004335e-007	1.073094e+001	2.000000e-002
2.341844493504335e-007	1.073144e+001	2.000000e-002
2.349168712254336e-007	1.073207e+001	2.000000e-002
2.356492931004336e-007	1.073257e+001	2.000000e-002
2.363817149754336e-007	1.073295e+001	2.000000e-002
2.368699962254336e-007	1.073313e+001	2.000000e-002
2.373582774754336e-007	1.073329e+001	2.000000e-002
2.378465587254335e-007	1.073341e+001	2.000000e-002
2.383348399754336e-007	1.073349e+001	2.000000e-002
2.388231212254335e-007	1.073355e+001	2.000000e-002
2.393114024754335e-007	1.073358e+001	2.000000e-002
2.397996837254335e-007	1.073357e+001	2.000000e-002
2.405321056004335e-007	1.073354e+001	2.000000e-002
2.412645274754334e-007	1.073348e+001	2.000000e-002
2.419969493504333e-007	1.073341e+001	2.000000e-002
2.425201078325762e-007	1.073335e+001	2.000000e-002
2.430432663147189e-007	1.073329e+001	2.000000e-002
2.435664247968618e-007	1.073323e+001	2.000000e-002
2.440895832790046e-007	1.073317e+001	2.000000e-002
2.446127417611474e-007	1.073312e+001	2.000000e-002
2.451359002432902e-007	1.073307e+001	2.000000e-002
2.456590587254330e-007	1.073302e+001	2.000000e-002
2.462170944397187e-007	1.073298e+001	2.000000e-002
2.467751301540044e-007	1.073294e+001	2.000000e-002
2.473331658682900e-007	1.073291e+001	2.000000e-002
2.478912015825757e-007	1.073289e+001	2.000000e-002
2.484492372968614e-007	1.073288e+001	2.000000e-002
2.490072730111470e-007	1.073287e+001	2.000000e-002
2.495653087254327e-007	1.073286e+001	2.000000e-002
2.498094493504327e-007	1.073287e+001	2.000000e-002
2.500000000000000e-007	1.073287e+001	2.000000e-002
