0 0
2.5e-09 0
5e-09 0
7.500000000000001e-09 0
1e-08 0
1.25e-08 0
1.5e-08 0
1.75e-08 0
2e-08 0
2.25e-08 0
2.5e-08 0
2.75e-08 0
3e-08 0
3.25e-08 0
3.5e-08 0
3.75e-08 0
4e-08 0
4.249999999999999e-08 0
4.499999999999999e-08 0
4.75e-08 0.0033331298828125
4.999999999999999e-08 0.006666564941406251
5.249999999999999e-08 0.01
5.499999999999999e-08 0.0133331298828125
5.749999999999999e-08 0.01666656494140625
5.999999999999999e-08 0.01999969482421875
5.999999999999999e-08 0.02
6.25e-08 0.02
6.499999999999999e-08 0.02
6.749999999999999e-08 0.02
6.999999999999999e-08 0.02
7.249999999999999e-08 0.02
7.5e-08 0.02
7.75e-08 0.02
7.999999999999999e-08 0.02
8.249999999999999e-08 0.02
8.499999999999999e-08 0.02
8.75e-08 0.02
9e-08 0.02
9.25e-08 0.02
9.5e-08 0.02
9.749999999999999e-08 0.02
1e-07 0.02
1.025e-07 0.02
1.05e-07 0.02
1.075e-07 0.0166668701171875
1.1e-07 0.01333343505859375
1.125e-07 0.01
1.15e-07 0.006666870117187499
1.175e-07 0.003333435058593751
1.2e-07 3.051757812497224e-07
1.2e-07 0
1.225e-07 0
1.25e-07 0
1.275e-07 0
1.3e-07 0
1.325e-07 0
1.35e-07 0
1.375e-07 0
1.4e-07 0
1.425e-07 0
1.45e-07 0
1.475e-07 0
1.5e-07 0
1.525e-07 0
1.55e-07 0
1.575e-07 0
1.6e-07 0
1.625e-07 0
1.65e-07 0
1.675e-07 0.0033331298828125
1.7e-07 0.006666564941406251
1.725e-07 0.01
1.75e-07 0.0133331298828125
1.775e-07 0.01666656494140625
1.8e-07 0.01999969482421875
1.8e-07 0.02
1.825e-07 0.02
1.849999999999999e-07 0.02
1.875e-07 0.02
1.9e-07 0.02
1.925e-07 0.02
1.95e-07 0.02
1.975e-07 0.02
1.999999999999999e-07 0.02
2.025e-07 0.02
2.049999999999999e-07 0.02
2.075e-07 0.02
2.099999999999999e-07 0.02
2.125e-07 0.02
2.15e-07 0.02
2.175e-07 0.02
2.2e-07 0.02
2.224999999999999e-07 0.02
