%time	V(out)	I(I2)
0.000000000000000e+000	-1.032454e+001	0.000000e+000
2.000000000000000e-008	-1.032454e+001	0.000000e+000
2.006605624002299e-008	-1.032454e+001	6.605624e-005
2.023119684008046e-008	-1.032454e+001	2.311968e-004
2.034679526012069e-008	-1.032454e+001	3.467952e-004
2.038908929330992e-008	-1.032454e+001	3.890893e-004
2.043138332649916e-008	-1.032454e+001	4.313833e-004
2.047367735968839e-008	-1.032454e+001	4.736774e-004
2.051597139287763e-008	-1.032454e+001	5.159714e-004
2.055826542606686e-008	-1.032454e+001	5.582654e-004
2.060055945925609e-008	-1.032454e+001	6.005595e-004
2.064285349244533e-008	-1.032454e+001	6.428535e-004
2.070890973246831e-008	-1.032454e+001	7.089097e-004
2.084102221251429e-008	-1.032454e+001	8.410222e-004
2.110524717260625e-008	-1.032454e+001	1.105247e-003
2.163369709279015e-008	-1.032452e+001	1.633697e-003
2.187892489924350e-008	-1.032451e+001	1.878925e-003
2.203618562964242e-008	-1.032449e+001	2.036186e-003
2.220102874157390e-008	-1.032448e+001	2.201029e-003
2.234319262042911e-008	-1.032446e+001	2.343193e-003
2.247874923591838e-008	-1.032444e+001	2.478749e-003
2.261322252731915e-008	-1.032441e+001	2.613222e-003
2.279015087038039e-008	-1.032436e+001	2.790151e-003
2.295529064095966e-008	-1.032428e+001	2.955291e-003
2.315161371008083e-008	-1.032415e+001	3.151614e-003
2.334475272360146e-008	-1.032396e+001	3.344753e-003
2.356798469145301e-008	-1.032361e+001	3.567985e-003
2.379934458973097e-008	-1.032306e+001	3.799345e-003
2.406585309667474e-008	-1.032205e+001	4.065853e-003
2.435559534082589e-008	-1.032032e+001	4.355595e-003
2.469541967038398e-008	-1.031705e+001	4.695420e-003
2.508679135772704e-008	-1.031092e+001	5.086791e-003
2.557120576388523e-008	-1.029813e+001	5.571206e-003
2.619285188243093e-008	-1.026874e+001	6.192852e-003
2.711771466584904e-008	-1.019042e+001	7.117715e-003
2.819193341584904e-008	-1.003661e+001	8.191934e-003
2.926615216584904e-008	-9.796185e+000	9.266152e-003
3.034037091584905e-008	-9.452043e+000	1.034037e-002
3.141458966584905e-008	-8.995650e+000	1.141459e-002
3.248880841584904e-008	-8.424932e+000	1.248881e-002
3.356302716584904e-008	-7.743540e+000	1.356303e-002
3.463724591584904e-008	-6.979230e+000	1.463725e-002
3.477152325959905e-008	-6.876243e+000	1.477152e-002
3.504007794709905e-008	-6.659547e+000	1.504008e-002
3.557718732209905e-008	-6.215760e+000	1.557719e-002
3.571146466584905e-008	-6.101852e+000	1.571146e-002
3.598001935334905e-008	-5.867548e+000	1.598002e-002
3.651712872834905e-008	-5.383497e+000	1.651713e-002
3.759134747834905e-008	-4.374085e+000	1.759135e-002
3.866556622834905e-008	-3.327845e+000	1.866557e-002
3.944621129330191e-008	-2.534759e+000	1.944621e-002
4.000000000000000e-008	-1.963547e+000	2.000000e-002
4.005537887066981e-008	-1.905789e+000	2.000000e-002
4.016613661200943e-008	-1.790092e+000	2.000000e-002
4.038765209468867e-008	-1.557871e+000	2.000000e-002
4.083068306004714e-008	-1.090600e+000	2.000000e-002
4.171674499076410e-008	-1.508902e-001	2.000000e-002
4.185102233451410e-008	-7.853433e-003	2.000000e-002
4.185689347043591e-008	-1.582878e-003	2.000000e-002
4.186276460635773e-008	4.687912e-003	2.000000e-002
4.186863574227954e-008	1.095894e-002	2.000000e-002
4.187450687820135e-008	1.723019e-002	2.000000e-002
4.188037801412316e-008	2.350169e-002	2.000000e-002
4.188624915004498e-008	2.977341e-002	2.000000e-002
4.189212028596679e-008	3.604537e-002	2.000000e-002
4.196870033357421e-008	1.178917e-001	2.000000e-002
4.204528038118164e-008	1.997793e-001	2.000000e-002
4.212186042878906e-008	2.817081e-001	2.000000e-002
4.219844047639648e-008	3.636783e-001	2.000000e-002
4.227502052400390e-008	4.456897e-001	2.000000e-002
4.235160057161132e-008	5.277424e-001	2.000000e-002
4.242818061921874e-008	6.098365e-001	2.000000e-002
4.296528999421874e-008	1.185632e+000	2.000000e-002
4.403950874421874e-008	2.334393e+000	2.000000e-002
4.511372749421874e-008	3.470571e+000	2.000000e-002
4.618794624421874e-008	4.577090e+000	2.000000e-002
4.726216499421874e-008	5.631911e+000	2.000000e-002
4.833638374421874e-008	6.611702e+000	2.000000e-002
4.941060249421874e-008	7.496134e+000	2.000000e-002
5.048482124421874e-008	8.271002e+000	2.000000e-002
5.155903999421874e-008	8.929262e+000	2.000000e-002
5.263325874421874e-008	9.470525e+000	2.000000e-002
5.370747749421874e-008	9.899986e+000	2.000000e-002
5.478169624421874e-008	1.022721e+001	2.000000e-002
5.585591499421874e-008	1.046480e+001	2.000000e-002
5.693013374421874e-008	1.062696e+001	2.000000e-002
5.800435249421874e-008	1.072825e+001	2.000000e-002
5.907857124421874e-008	1.078271e+001	2.000000e-002
6.016944204997740e-008	1.080879e+001	2.000000e-002
6.044722383919004e-008	1.080849e+001	2.000000e-002
6.072500562840271e-008	1.080731e+001	2.000000e-002
6.100278741761536e-008	1.080527e+001	2.000000e-002
6.128056920682801e-008	1.080234e+001	2.000000e-002
6.155835099604065e-008	1.079854e+001	2.000000e-002
6.183613278525332e-008	1.079387e+001	2.000000e-002
6.211391457446597e-008	1.078832e+001	2.000000e-002
6.273757153533691e-008	1.077477e+001	2.000000e-002
6.381179028533691e-008	1.075002e+001	2.000000e-002
6.488207158736500e-008	1.072603e+001	2.000000e-002
6.595629033736500e-008	1.070498e+001	2.000000e-002
6.703050908736500e-008	1.068862e+001	2.000000e-002
6.810472783736500e-008	1.067729e+001	2.000000e-002
6.892578124999999e-008	1.067167e+001	2.000000e-002
6.909550372509551e-008	1.067097e+001	2.000000e-002
6.943494867528653e-008	1.067025e+001	2.000000e-002
6.999999999999999e-008	1.066964e+001	2.000000e-002
7.005650513247134e-008	1.066967e+001	1.994349e-002
7.016951539741403e-008	1.066977e+001	1.983048e-002
7.039553592729942e-008	1.067004e+001	1.960446e-002
7.045204105977077e-008	1.067014e+001	1.954796e-002
7.056505132471347e-008	1.067037e+001	1.943495e-002
7.079107185459885e-008	1.067093e+001	1.920893e-002
7.084757698707020e-008	1.067109e+001	1.915242e-002
7.096058725201290e-008	1.067145e+001	1.903941e-002
7.118660778189829e-008	1.067230e+001	1.881339e-002
7.163864884166906e-008	1.067438e+001	1.836135e-002
7.254273096121061e-008	1.067930e+001	1.745727e-002
7.310342969223990e-008	1.068261e+001	1.689657e-002
7.347377832236876e-008	1.068473e+001	1.652622e-002
7.382211938003549e-008	1.068640e+001	1.617788e-002
7.413781761499904e-008	1.068742e+001	1.586218e-002
7.441953481991784e-008	1.068773e+001	1.558047e-002
7.464614869662576e-008	1.068732e+001	1.535385e-002
7.491901765703158e-008	1.068584e+001	1.508098e-002
7.518624270943339e-008	1.068280e+001	1.481376e-002
7.564394811797007e-008	1.067305e+001	1.435605e-002
7.619872002748716e-008	1.064990e+001	1.380128e-002
7.713693140198914e-008	1.057563e+001	1.286307e-002
7.821115015198914e-008	1.042733e+001	1.178885e-002
7.928536890198914e-008	1.019096e+001	1.071463e-002
8.035958765198914e-008	9.849520e+000	9.640412e-003
8.143380640198914e-008	9.394598e+000	8.566193e-003
8.250802515198914e-008	8.824313e+000	7.491975e-003
8.358224390198914e-008	8.164742e+000	6.417756e-003
8.371652124573914e-008	8.074025e+000	6.283479e-003
8.418649194886414e-008	7.735137e+000	5.813508e-003
8.465646265198914e-008	7.377835e+000	5.343537e-003
8.492501733948915e-008	7.166068e+000	5.074983e-003
8.499215601136415e-008	7.112311e+000	5.007844e-003
8.512643335511414e-008	7.002957e+000	4.873567e-003
8.520573742812006e-008	6.938373e+000	4.794263e-003
8.528504150112598e-008	6.873237e+000	4.714959e-003
8.536434557413189e-008	6.807550e+000	4.635654e-003
8.544364964713780e-008	6.741310e+000	4.556350e-003
8.552295372014371e-008	6.674519e+000	4.477046e-003
8.560225779314963e-008	6.607176e+000	4.397742e-003
8.568156186615555e-008	6.539281e+000	4.318438e-003
8.595011655365555e-008	6.305642e+000	4.049883e-003
8.648722592865555e-008	5.822361e+000	3.512774e-003
8.756144467865555e-008	4.814097e+000	2.438555e-003
8.892578124999999e-008	3.477472e+000	1.074219e-003
9.000000000000001e-008	2.373589e+000	0.000000e+000
9.005802356426889e-008	2.313038e+000	0.000000e+000
9.017407069280667e-008	2.191736e+000	0.000000e+000
9.040616494988222e-008	1.948235e+000	0.000000e+000
9.087035346403333e-008	1.458194e+000	0.000000e+000
9.179873049233553e-008	4.726209e-001	0.000000e+000
9.193300783608553e-008	3.294044e-001	0.000000e+000
9.198162165139199e-008	2.774181e-001	0.000000e+000
9.203023546669844e-008	2.254203e-001	0.000000e+000
9.207884928200490e-008	1.734109e-001	0.000000e+000
9.212746309731134e-008	1.213899e-001	0.000000e+000
9.217607691261780e-008	6.935737e-002	0.000000e+000
9.222469072792425e-008	1.731322e-002	0.000000e+000
9.227330454323071e-008	-3.474252e-002	0.000000e+000
9.242675499821510e-008	-1.992880e-001	0.000000e+000
9.258020545319950e-008	-3.638398e-001	0.000000e+000
9.273365590818389e-008	-5.283982e-001	0.000000e+000
9.288710636316828e-008	-6.929629e-001	0.000000e+000
9.304055681815267e-008	-8.575342e-001	0.000000e+000
9.319400727313707e-008	-1.022112e+000	0.000000e+000
9.334745772812146e-008	-1.186696e+000	0.000000e+000
9.442167647812146e-008	-2.332694e+000	0.000000e+000
9.549589522812146e-008	-3.460836e+000	0.000000e+000
9.657011397812146e-008	-4.551723e+000	0.000000e+000
9.764433272812146e-008	-5.582370e+000	0.000000e+000
9.871855147812146e-008	-6.530092e+000	0.000000e+000
9.979277022812146e-008	-7.376556e+000	0.000000e+000
1.008669889781215e-007	-8.110140e+000	0.000000e+000
1.019412077281215e-007	-8.726293e+000	0.000000e+000
1.030154264781215e-007	-9.226751e+000	0.000000e+000
1.040896452281215e-007	-9.618421e+000	0.000000e+000
1.051638639781215e-007	-9.912113e+000	0.000000e+000
1.062380827281215e-007	-1.012115e+001	0.000000e+000
1.073123014781215e-007	-1.025998e+001	0.000000e+000
1.083865202281215e-007	-1.034307e+001	0.000000e+000
1.094607389781215e-007	-1.038504e+001	0.000000e+000
1.103668768950498e-007	-1.039649e+001	0.000000e+000
1.112044259869931e-007	-1.039253e+001	0.000000e+000
1.120786376118646e-007	-1.037917e+001	0.000000e+000
1.131292899008538e-007	-1.035701e+001	0.000000e+000
1.141738609786282e-007	-1.033300e+001	0.000000e+000
1.152480797286282e-007	-1.030962e+001	0.000000e+000
1.163222984786282e-007	-1.028998e+001	0.000000e+000
1.173965172286282e-007	-1.027537e+001	0.000000e+000
1.184707359786282e-007	-1.026542e+001	0.000000e+000
1.189257812500000e-007	-1.026269e+001	0.000000e+000
1.190899094572563e-007	-1.026208e+001	0.000000e+000
1.194181658717690e-007	-1.026137e+001	0.000000e+000
1.200000000000000e-007	-1.026073e+001	0.000000e+000
1.200507316060484e-007	-1.026076e+001	5.073161e-005
1.201521948181453e-007	-1.026084e+001	1.521948e-004
1.203551212423391e-007	-1.026107e+001	3.551212e-004
1.203951394773005e-007	-1.026113e+001	3.951395e-004
1.204351577122619e-007	-1.026119e+001	4.351577e-004
1.204751759472234e-007	-1.026127e+001	4.751760e-004
1.205151941821848e-007	-1.026134e+001	5.151942e-004
1.205552124171462e-007	-1.026143e+001	5.552124e-004
1.205952306521077e-007	-1.026152e+001	5.952307e-004
1.206352488870691e-007	-1.026162e+001	6.352489e-004
1.208333074608945e-007	-1.026218e+001	8.333075e-004
1.212294246085453e-007	-1.026367e+001	1.229425e-003
1.220216589038469e-007	-1.026750e+001	2.021659e-003
1.228265865197560e-007	-1.027204e+001	2.826587e-003
1.233014893614758e-007	-1.027484e+001	3.301489e-003
1.236503936099887e-007	-1.027670e+001	3.650394e-003
1.239711090286684e-007	-1.027801e+001	3.971109e-003
1.242694473806502e-007	-1.027868e+001	4.269447e-003
1.245292530319197e-007	-1.027865e+001	4.529253e-003
1.247494399174198e-007	-1.027796e+001	4.749440e-003
1.249975595420677e-007	-1.027613e+001	4.997559e-003
1.253356581724141e-007	-1.027133e+001	5.335658e-003
1.258108040363356e-007	-1.025864e+001	5.810804e-003
1.264747299877718e-007	-1.022343e+001	6.474730e-003
1.275489487377718e-007	-1.011799e+001	7.548949e-003
1.286231674877718e-007	-9.939387e+000	8.623168e-003
1.296973862377718e-007	-9.664275e+000	9.697386e-003
1.307716049877718e-007	-9.280047e+000	1.077161e-002
1.318458237377718e-007	-8.780851e+000	1.184582e-002
1.329200424877718e-007	-8.167127e+000	1.292004e-002
1.339942612377718e-007	-7.444668e+000	1.399426e-002
1.350684799877718e-007	-6.641830e+000	1.506848e-002
1.352363266674593e-007	-6.507112e+000	1.523633e-002
1.354713120190218e-007	-6.311586e+000	1.547131e-002
1.355009140541493e-007	-6.286700e+000	1.550091e-002
1.355305160892769e-007	-6.261740e+000	1.553052e-002
1.355601181244044e-007	-6.236706e+000	1.556012e-002
1.355897201595320e-007	-6.211599e+000	1.558972e-002
1.356193221946596e-007	-6.186419e+000	1.561932e-002
1.356489242297871e-007	-6.161165e+000	1.564892e-002
1.356785262649146e-007	-6.135838e+000	1.567853e-002
1.358128036086646e-007	-6.020028e+000	1.581280e-002
1.360813582961646e-007	-5.784101e+000	1.608136e-002
1.366184676711647e-007	-5.296641e+000	1.661847e-002
1.376926864211647e-007	-4.281158e+000	1.769269e-002
1.387669051711647e-007	-3.230601e+000	1.876690e-002
1.400000000000000e-007	-1.966062e+000	2.000000e-002
1.401180739284096e-007	-1.842778e+000	2.000000e-002
1.402755058329558e-007	-1.677903e+000	2.000000e-002
1.405903696420481e-007	-1.346581e+000	2.000000e-002
1.412200972602327e-007	-6.808599e-001	2.000000e-002
1.413543746039827e-007	-5.382808e-001	2.000000e-002
1.416229292914827e-007	-2.522210e-001	2.000000e-002
1.416900679633577e-007	-1.806107e-001	2.000000e-002
1.418579146430452e-007	-1.370382e-003	2.000000e-002
1.418629175101919e-007	3.976059e-003	2.000000e-002
1.418679203773386e-007	9.322679e-003	2.000000e-002
1.418729232444853e-007	1.466948e-002	2.000000e-002
1.418779261116320e-007	2.001645e-002	2.000000e-002
1.418829289787786e-007	2.536361e-002	2.000000e-002
1.418879318459253e-007	3.071095e-002	2.000000e-002
1.418929347130720e-007	3.605846e-002	2.000000e-002
1.419695147606795e-007	1.179525e-001	2.000000e-002
1.420460948082869e-007	1.998876e-001	2.000000e-002
1.421226748558943e-007	2.818640e-001	2.000000e-002
1.421992549035017e-007	3.638815e-001	2.000000e-002
1.422758349511091e-007	4.459402e-001	2.000000e-002
1.423524149987166e-007	5.280401e-001	2.000000e-002
1.424289950463240e-007	6.101812e-001	2.000000e-002
1.429661044213240e-007	1.186306e+000	2.000000e-002
1.440403231713240e-007	2.335695e+000	2.000000e-002
1.451145419213240e-007	3.472389e+000	2.000000e-002
1.461887606713240e-007	4.579198e+000	2.000000e-002
1.472629794213240e-007	5.634024e+000	2.000000e-002
1.483371981713240e-007	6.613575e+000	2.000000e-002
1.494114169213240e-007	7.497631e+000	2.000000e-002
1.504856356713240e-007	8.272086e+000	2.000000e-002
1.515598544213240e-007	8.929949e+000	2.000000e-002
1.526340731713240e-007	9.470850e+000	2.000000e-002
1.537082919213240e-007	9.900003e+000	2.000000e-002
1.547825106713240e-007	1.022700e+001	2.000000e-002
1.558567294213240e-007	1.046442e+001	2.000000e-002
1.569309481713240e-007	1.062648e+001	2.000000e-002
1.580051669213240e-007	1.072773e+001	2.000000e-002
1.590793856713240e-007	1.078219e+001	2.000000e-002
1.601706919494037e-007	1.080830e+001	2.000000e-002
1.604199400258754e-007	1.080833e+001	2.000000e-002
1.606691881023472e-007	1.080755e+001	2.000000e-002
1.609184361788189e-007	1.080595e+001	2.000000e-002
1.611676842552907e-007	1.080353e+001	2.000000e-002
1.614169323317624e-007	1.080029e+001	2.000000e-002
1.616661804082342e-007	1.079623e+001	2.000000e-002
1.619154284847059e-007	1.079135e+001	2.000000e-002
1.627928005064342e-007	1.077299e+001	2.000000e-002
1.638670192564342e-007	1.074852e+001	2.000000e-002
1.649412380064342e-007	1.072460e+001	2.000000e-002
1.660154567564342e-007	1.070381e+001	2.000000e-002
1.670896755064342e-007	1.068777e+001	2.000000e-002
1.681638942564342e-007	1.067670e+001	2.000000e-002
1.689257812500000e-007	1.067161e+001	2.000000e-002
1.690987871903929e-007	1.067092e+001	2.000000e-002
1.694447990711788e-007	1.067019e+001	2.000000e-002
1.700000000000000e-007	1.066961e+001	2.000000e-002
1.700555200928821e-007	1.066964e+001	1.994448e-002
1.701665602786464e-007	1.066973e+001	1.983344e-002
1.703886406501749e-007	1.067000e+001	1.961136e-002
1.705552009288213e-007	1.067031e+001	1.944480e-002
1.705943574155315e-007	1.067039e+001	1.940564e-002
1.706335139022419e-007	1.067048e+001	1.936649e-002
1.706726703889522e-007	1.067058e+001	1.932733e-002
1.707118268756625e-007	1.067068e+001	1.928817e-002
1.707509833623728e-007	1.067079e+001	1.924902e-002
1.707901398490831e-007	1.067090e+001	1.920986e-002
1.708292963357934e-007	1.067102e+001	1.917070e-002
1.710513767073219e-007	1.067178e+001	1.894862e-002
1.714955374503789e-007	1.067370e+001	1.850446e-002
1.723838589364928e-007	1.067836e+001	1.761614e-002
1.730001856240015e-007	1.068197e+001	1.699981e-002
1.734018055362657e-007	1.068431e+001	1.659819e-002
1.737528880770468e-007	1.068608e+001	1.624711e-002
1.740678829482422e-007	1.068722e+001	1.593212e-002
1.743560487825146e-007	1.068769e+001	1.564395e-002
1.745985954834252e-007	1.068743e+001	1.540140e-002
1.748491236416674e-007	1.068635e+001	1.515088e-002
1.750785998187186e-007	1.068421e+001	1.492140e-002
1.754952719907987e-007	1.067693e+001	1.450473e-002
1.759895087901911e-007	1.066034e+001	1.401049e-002
1.768019025788908e-007	1.060738e+001	1.319810e-002
1.778761213288908e-007	1.048178e+001	1.212388e-002
1.789503400788908e-007	1.027541e+001	1.104966e-002
1.800245588288908e-007	9.967982e+000	9.975441e-003
1.810987775788908e-007	9.548965e+000	8.901223e-003
1.821729963288908e-007	9.014502e+000	7.827003e-003
1.832472150788908e-007	8.389680e+000	6.752785e-003
1.836500471101408e-007	8.117465e+000	6.349953e-003
1.841934507356291e-007	7.730805e+000	5.806549e-003
1.842716303413999e-007	7.672542e+000	5.728370e-003
1.843498099471708e-007	7.613664e+000	5.650190e-003
1.844279895529417e-007	7.554171e+000	5.572010e-003
1.845061691587125e-007	7.494063e+000	5.493831e-003
1.845843487644833e-007	7.433341e+000	5.415651e-003
1.846625283702542e-007	7.372003e+000	5.337472e-003
1.847407079760251e-007	7.310050e+000	5.259292e-003
1.852778173510251e-007	6.869781e+000	4.722183e-003
1.863520361010251e-007	5.951017e+000	3.647964e-003
1.867548681322751e-007	5.584799e+000	3.245132e-003
1.883661962572751e-007	4.034595e+000	1.633804e-003
1.900000000000000e-007	2.374203e+000	0.000000e+000
1.901074218750000e-007	2.261950e+000	0.000000e+000
1.903222656250000e-007	2.036809e+000	0.000000e+000
1.907519531250000e-007	1.583857e+000	0.000000e+000
1.916113281250000e-007	6.728963e-001	0.000000e+000
1.917456054687500e-007	5.298740e-001	0.000000e+000
1.920812988281250e-007	1.710735e-001	0.000000e+000
1.921088238726926e-007	1.416147e-001	0.000000e+000
1.921363489172602e-007	1.121515e-001	0.000000e+000
1.921638739618278e-007	8.268395e-002	0.000000e+000
1.921913990063954e-007	5.321200e-002	0.000000e+000
1.922189240509631e-007	2.373566e-002	0.000000e+000
1.922464490955307e-007	-5.745053e-003	0.000000e+000
1.922739741400983e-007	-3.523016e-002	0.000000e+000
1.924273590299734e-007	-1.997207e-001	0.000000e+000
1.925807439198486e-007	-3.642181e-001	0.000000e+000
1.927341288097237e-007	-5.287224e-001	0.000000e+000
1.928875136995989e-007	-6.932336e-001	0.000000e+000
1.930408985894740e-007	-8.577518e-001	0.000000e+000
1.931942834793492e-007	-1.022277e+000	0.000000e+000
1.933476683692243e-007	-1.186809e+000	0.000000e+000
1.944218871192243e-007	-2.332920e+000	0.000000e+000
1.954961058692243e-007	-3.461128e+000	0.000000e+000
1.965703246192243e-007	-4.552000e+000	0.000000e+000
1.976445433692243e-007	-5.582551e+000	0.000000e+000
1.987187621192243e-007	-6.530132e+000	0.000000e+000
1.997929808692243e-007	-7.376455e+000	0.000000e+000
2.008671996192243e-007	-8.109922e+000	0.000000e+000
2.019414183692243e-007	-8.725989e+000	0.000000e+000
2.030156371192243e-007	-9.226393e+000	0.000000e+000
2.040898558692243e-007	-9.618038e+000	0.000000e+000
2.051640746192243e-007	-9.911736e+000	0.000000e+000
2.062382933692243e-007	-1.012080e+001	0.000000e+000
2.073125121192243e-007	-1.025967e+001	0.000000e+000
2.083867308692243e-007	-1.034282e+001	0.000000e+000
2.094609496192243e-007	-1.038483e+001	0.000000e+000
2.103697058675523e-007	-1.039633e+001	0.000000e+000
2.112074294904898e-007	-1.039240e+001	0.000000e+000
2.120821220896739e-007	-1.037905e+001	0.000000e+000
2.131313180409634e-007	-1.035695e+001	0.000000e+000
2.141760476905729e-007	-1.033296e+001	0.000000e+000
2.152502664405729e-007	-1.030962e+001	0.000000e+000
2.163244851905729e-007	-1.029001e+001	0.000000e+000
2.173987039405729e-007	-1.027542e+001	0.000000e+000
2.184729226905729e-007	-1.026549e+001	0.000000e+000
2.189257812500000e-007	-1.026278e+001	0.000000e+000
2.190942828811459e-007	-1.026215e+001	0.000000e+000
2.194312861434376e-007	-1.026143e+001	0.000000e+000
2.200000000000000e-007	-1.026082e+001	0.000000e+000
2.200568713856562e-007	-1.026085e+001	5.687138e-005
2.201706141569687e-007	-1.026095e+001	1.706142e-004
2.202398584468072e-007	-1.026101e+001	2.398585e-004
2.203091027366457e-007	-1.026109e+001	3.091027e-004
2.203783470264842e-007	-1.026118e+001	3.783470e-004
2.204475913163226e-007	-1.026130e+001	4.475913e-004
2.205168356061611e-007	-1.026143e+001	5.168356e-004
2.205860798959996e-007	-1.026157e+001	5.860799e-004
2.206553241858381e-007	-1.026173e+001	6.553242e-004
2.207031911148674e-007	-1.026186e+001	7.031911e-004
2.207989249729261e-007	-1.026212e+001	7.989250e-004
2.209903926890436e-007	-1.026275e+001	9.903926e-004
2.213733281212784e-007	-1.026432e+001	1.373328e-003
2.221391989857481e-007	-1.026820e+001	2.139199e-003
2.228607984350955e-007	-1.027238e+001	2.860799e-003
2.233092248555028e-007	-1.027505e+001	3.309225e-003
2.236632814530853e-007	-1.027696e+001	3.663281e-003
2.239774903635586e-007	-1.027827e+001	3.977491e-003
2.242731501204105e-007	-1.027896e+001	4.273150e-003
2.245350177721196e-007	-1.027895e+001	4.535018e-003
2.247502091593565e-007	-1.027829e+001	4.750209e-003
2.250079113483568e-007	-1.027640e+001	5.007911e-003
2.253364658089091e-007	-1.027172e+001	5.336466e-003
2.258212927363873e-007	-1.025870e+001	5.821293e-003
2.264834662504383e-007	-1.022337e+001	6.483466e-003
2.275576850004383e-007	-1.011733e+001	7.557685e-003
2.286319037504383e-007	-9.937930e+000	8.631904e-003
2.297061225004383e-007	-9.661875e+000	9.706123e-003
2.307803412504383e-007	-9.276629e+000	1.078034e-002
2.318545600004383e-007	-8.776403e+000	1.185456e-002
2.329287787504383e-007	-8.161688e+000	1.292878e-002
2.341372748441883e-007	-7.363793e+000	1.413727e-002
2.344058295316883e-007	-7.160615e+000	1.440583e-002
2.349429389066883e-007	-6.733904e+000	1.494294e-002
2.360171576566883e-007	-5.840131e+000	1.601716e-002
2.364199896879383e-007	-5.481923e+000	1.641999e-002
2.380313178129383e-007	-3.953548e+000	1.803132e-002
2.389257812500000e-007	-3.063503e+000	1.892578e-002
2.400000000000000e-007	-1.966370e+000	2.000000e-002
2.401074218750000e-007	-1.854100e+000	2.000000e-002
2.403222656250000e-007	-1.628923e+000	2.000000e-002
2.407519531250000e-007	-1.175901e+000	2.000000e-002
2.416113281249999e-007	-2.648014e-001	2.000000e-002
2.417456054687499e-007	-1.218013e-001	2.000000e-002
2.417667123639641e-007	-9.926117e-002	2.000000e-002
2.417878192591784e-007	-7.671776e-002	2.000000e-002
2.418089261543926e-007	-5.417104e-002	2.000000e-002
2.418300330496069e-007	-3.162103e-002	2.000000e-002
2.418511399448211e-007	-9.067724e-003	2.000000e-002
2.418722468400353e-007	1.348888e-002	2.000000e-002
2.418933537352495e-007	3.604878e-002	2.000000e-002
2.419090893614702e-007	5.287070e-002	2.000000e-002
2.420265820372515e-007	1.785461e-001	2.000000e-002
2.421608593810015e-007	3.223129e-001	2.000000e-002
2.424294140685015e-007	6.101767e-001	2.000000e-002
2.429665234435015e-007	1.186267e+000	2.000000e-002
2.440407421935015e-007	2.335510e+000	2.000000e-002
2.451149609435015e-007	3.472016e+000	2.000000e-002
2.461891796935016e-007	4.578680e+000	2.000000e-002
2.472633984435016e-007	5.633478e+000	2.000000e-002
2.483376171935016e-007	6.613120e+000	2.000000e-002
2.494118359435016e-007	7.497327e+000	2.000000e-002
2.504860546935017e-007	8.271936e+000	2.000000e-002
2.515602734435017e-007	8.929934e+000	2.000000e-002
2.526344921935017e-007	9.470949e+000	2.000000e-002
2.537087109435017e-007	9.900192e+000	2.000000e-002
2.547829296935018e-007	1.022724e+001	2.000000e-002
2.558571484435018e-007	1.046469e+001	2.000000e-002
2.569313671935018e-007	1.062675e+001	2.000000e-002
2.580055859435018e-007	1.072798e+001	2.000000e-002
2.590798046935019e-007	1.078241e+001	2.000000e-002
2.601707292769455e-007	1.080847e+001	2.000000e-002
2.604494852407920e-007	1.080817e+001	2.000000e-002
2.607282412046386e-007	1.080699e+001	2.000000e-002
2.610069971684852e-007	1.080493e+001	2.000000e-002
2.612857531323318e-007	1.080199e+001	2.000000e-002
2.615645090961783e-007	1.079817e+001	2.000000e-002
2.618432650600249e-007	1.079347e+001	2.000000e-002
2.621220210238715e-007	1.078790e+001	2.000000e-002
2.627483087240654e-007	1.077429e+001	2.000000e-002
2.638225274740654e-007	1.074956e+001	2.000000e-002
2.648935485657661e-007	1.072561e+001	2.000000e-002
2.659677673157662e-007	1.070462e+001	2.000000e-002
2.670419860657662e-007	1.068834e+001	2.000000e-002
2.681162048157662e-007	1.067707e+001	2.000000e-002
2.689257812500000e-007	1.067156e+001	2.000000e-002
2.690966416961449e-007	1.067086e+001	2.000000e-002
2.694383625884346e-007	1.067014e+001	2.000000e-002
2.700000000000000e-007	1.066954e+001	2.000000e-002
2.700561637411565e-007	1.066957e+001	1.994384e-002
2.701684912234696e-007	1.066967e+001	1.983151e-002
2.703931461880957e-007	1.066994e+001	1.960685e-002
2.704493099292523e-007	1.067003e+001	1.955069e-002
2.705616374115654e-007	1.067027e+001	1.943836e-002
2.707862923761915e-007	1.067081e+001	1.921371e-002
2.708424561173481e-007	1.067097e+001	1.915754e-002
2.709547835996612e-007	1.067133e+001	1.904522e-002
2.711794385642873e-007	1.067217e+001	1.882056e-002
2.716287484935396e-007	1.067424e+001	1.837125e-002
2.725273683520442e-007	1.067912e+001	1.747263e-002
2.730920256734462e-007	1.068245e+001	1.690798e-002
2.734650553961625e-007	1.068459e+001	1.653494e-002
2.738139939242304e-007	1.068628e+001	1.618601e-002
2.741299418267329e-007	1.068731e+001	1.587006e-002
2.744126223126156e-007	1.068764e+001	1.558738e-002
2.746413011991696e-007	1.068725e+001	1.535870e-002
2.749117075840290e-007	1.068581e+001	1.508829e-002
2.751753079322765e-007	1.068287e+001	1.482469e-002
2.756285202712329e-007	1.067340e+001	1.437148e-002
2.761772637479298e-007	1.065100e+001	1.382274e-002
2.771015172334147e-007	1.057924e+001	1.289848e-002
2.781757359834147e-007	1.043341e+001	1.182426e-002
2.792499547334147e-007	1.020026e+001	1.075005e-002
2.803241734834147e-007	9.862453e+000	9.675827e-003
2.813983922334148e-007	9.411327e+000	8.601608e-003
2.824726109834148e-007	8.844807e+000	7.527389e-003
2.835468297334148e-007	8.188869e+000	6.453170e-003
2.836811070771648e-007	8.098585e+000	6.318893e-003
2.841510777802898e-007	7.761142e+000	5.848922e-003
2.846210484834148e-007	7.405208e+000	5.378951e-003
2.849567418427899e-007	7.140612e+000	5.043258e-003
2.850910191865399e-007	7.031613e+000	4.908981e-003
2.853595738740399e-007	6.808856e+000	4.640426e-003
2.860309605927898e-007	6.236182e+000	3.969039e-003
2.862995152802898e-007	5.996461e+000	3.700485e-003
2.868366246552898e-007	5.502520e+000	3.163375e-003
2.879108434052898e-007	4.476124e+000	2.089157e-003
2.889850621552899e-007	3.409564e+000	1.014938e-003
2.900000000000000e-007	2.373851e+000	3.469447e-017
2.901014937844710e-007	2.267817e+000	0.000000e+000
2.903044813534130e-007	2.055176e+000	0.000000e+000
2.907104564912971e-007	1.627469e+000	0.000000e+000
2.915224067670652e-007	7.674054e-001	0.000000e+000
2.916566841108152e-007	6.244916e-001	0.000000e+000
2.919923774701902e-007	2.659537e-001	0.000000e+000
2.920327989322987e-007	2.227181e-001	0.000000e+000
2.920732203944072e-007	1.794721e-001	0.000000e+000
2.921136418565157e-007	1.362156e-001	0.000000e+000
2.921540633186242e-007	9.294854e-002	0.000000e+000
2.921944847807327e-007	4.967103e-002	0.000000e+000
2.922349062428412e-007	6.383031e-003	0.000000e+000
2.922753277049497e-007	-3.691546e-002	0.000000e+000
2.924284878001646e-007	-2.011583e-001	0.000000e+000
2.925816478953794e-007	-3.654089e-001	0.000000e+000
2.927348079905943e-007	-5.296674e-001	0.000000e+000
2.928879680858091e-007	-6.939337e-001	0.000000e+000
2.930411281810239e-007	-8.582078e-001	0.000000e+000
2.931942882762388e-007	-1.022490e+000	0.000000e+000
2.933474483714536e-007	-1.186779e+000	0.000000e+000
2.944216671214536e-007	-2.332903e+000	0.000000e+000
2.954958858714537e-007	-3.461138e+000	0.000000e+000
2.965701046214537e-007	-4.552026e+000	0.000000e+000
2.976443233714537e-007	-5.582571e+000	0.000000e+000
2.987185421214538e-007	-6.530127e+000	0.000000e+000
2.997927608714538e-007	-7.376422e+000	0.000000e+000
3.008669796214538e-007	-8.109868e+000	0.000000e+000
3.019411983714538e-007	-8.725922e+000	0.000000e+000
3.030154171214539e-007	-9.226317e+000	0.000000e+000
3.040896358714539e-007	-9.617962e+000	0.000000e+000
3.051638546214539e-007	-9.911665e+000	0.000000e+000
3.062380733714539e-007	-1.012074e+001	0.000000e+000
3.073122921214540e-007	-1.025963e+001	0.000000e+000
3.083865108714540e-007	-1.034279e+001	0.000000e+000
3.094607296214540e-007	-1.038481e+001	0.000000e+000
3.103704232869460e-007	-1.039633e+001	0.000000e+000
3.112084510483068e-007	-1.039240e+001	0.000000e+000
3.120835473088623e-007	-1.037904e+001	0.000000e+000
3.131321619634564e-007	-1.035696e+001	0.000000e+000
3.141769365708799e-007	-1.033298e+001	0.000000e+000
3.152511553208799e-007	-1.030964e+001	0.000000e+000
3.163253740708800e-007	-1.029005e+001	0.000000e+000
3.173995928208800e-007	-1.027547e+001	0.000000e+000
3.184738115708800e-007	-1.026554e+001	0.000000e+000
3.189257812500000e-007	-1.026284e+001	0.000000e+000
3.190960606417601e-007	-1.026221e+001	0.000000e+000
3.194366194252802e-007	-1.026149e+001	0.000000e+000
3.200000000000000e-007	-1.026088e+001	0.000000e+000
3.200563380574720e-007	-1.026091e+001	5.633806e-005
3.201690141724160e-007	-1.026101e+001	1.690142e-004
3.204123651960992e-007	-1.026130e+001	4.123652e-004
3.204531022819166e-007	-1.026137e+001	4.531023e-004
3.204938393677339e-007	-1.026145e+001	4.938393e-004
3.205345764535513e-007	-1.026153e+001	5.345764e-004
3.205753135393686e-007	-1.026161e+001	5.753135e-004
3.206160506251860e-007	-1.026171e+001	6.160506e-004
3.206567877110033e-007	-1.026180e+001	6.567877e-004
3.206975247968207e-007	-1.026191e+001	6.975248e-004
3.207935183637292e-007	-1.026217e+001	7.935184e-004
3.209855054975463e-007	-1.026280e+001	9.855055e-004
3.213694797651804e-007	-1.026437e+001	1.369480e-003
3.221374283004486e-007	-1.026826e+001	2.137428e-003
3.228607352129251e-007	-1.027244e+001	2.860735e-003
3.233096107670730e-007	-1.027511e+001	3.309611e-003
3.236634804349404e-007	-1.027702e+001	3.663481e-003
3.239777535195752e-007	-1.027833e+001	3.977754e-003
3.242733953472133e-007	-1.027901e+001	4.273396e-003
3.245351087082793e-007	-1.027901e+001	4.535109e-003
3.247505765026830e-007	-1.027834e+001	4.750576e-003
3.250076599876323e-007	-1.027646e+001	5.007660e-003
3.253367997451318e-007	-1.027177e+001	5.336800e-003
3.258211347238455e-007	-1.025876e+001	5.821135e-003
3.264837529352807e-007	-1.022340e+001	6.483753e-003
3.275579716852807e-007	-1.011734e+001	7.557972e-003
3.286321904352808e-007	-9.937923e+000	8.632191e-003
3.297064091852808e-007	-9.661844e+000	9.706410e-003
3.307806279352808e-007	-9.276571e+000	1.078063e-002
3.318548466852808e-007	-8.776317e+000	1.185485e-002
3.329290654352809e-007	-8.161573e+000	1.292907e-002
3.341375615290309e-007	-7.363647e+000	1.413756e-002
3.344061162165309e-007	-7.160463e+000	1.440612e-002
3.349432255915309e-007	-6.733741e+000	1.494323e-002
3.360174443415309e-007	-5.839946e+000	1.601744e-002
3.364202763727809e-007	-5.481730e+000	1.642028e-002
3.380316044977809e-007	-3.953335e+000	1.803160e-002
3.389257812500000e-007	-3.063569e+000	1.892578e-002
3.400000000000000e-007	-1.966433e+000	2.000000e-002
3.401074218750000e-007	-1.854162e+000	2.000000e-002
3.403222656250000e-007	-1.628985e+000	2.000000e-002
3.407519531250000e-007	-1.175963e+000	2.000000e-002
3.416113281249999e-007	-2.648623e-001	2.000000e-002
3.417456054687499e-007	-1.218621e-001	2.000000e-002
3.417667204615593e-007	-9.931328e-002	2.000000e-002
3.417878354543686e-007	-7.676120e-002	2.000000e-002
3.418089504471780e-007	-5.420581e-002	2.000000e-002
3.418300654399874e-007	-3.164713e-002	2.000000e-002
3.418511804327967e-007	-9.085140e-003	2.000000e-002
3.418722954256060e-007	1.348015e-002	2.000000e-002
3.418934104184154e-007	3.604874e-002	2.000000e-002
3.419699904660228e-007	1.179456e-001	2.000000e-002
3.420465705136303e-007	1.998830e-001	2.000000e-002
3.421231505612377e-007	2.818608e-001	2.000000e-002
3.421997306088451e-007	3.638792e-001	2.000000e-002
3.422763106564525e-007	4.459381e-001	2.000000e-002
3.423528907040600e-007	5.280374e-001	2.000000e-002
3.424294707516674e-007	6.101773e-001	2.000000e-002
3.429665801266674e-007	1.186268e+000	2.000000e-002
3.440407988766674e-007	2.335511e+000	2.000000e-002
3.451150176266674e-007	3.472017e+000	2.000000e-002
3.461892363766674e-007	4.578680e+000	2.000000e-002
3.472634551266675e-007	5.633474e+000	2.000000e-002
3.483376738766675e-007	6.613112e+000	2.000000e-002
3.494118926266675e-007	7.497313e+000	2.000000e-002
3.504861113766675e-007	8.271917e+000	2.000000e-002
3.515603301266676e-007	8.929909e+000	2.000000e-002
3.526345488766676e-007	9.470919e+000	2.000000e-002
3.537087676266676e-007	9.900155e+000	2.000000e-002
3.547829863766677e-007	1.022720e+001	2.000000e-002
3.558572051266677e-007	1.046465e+001	2.000000e-002
3.569314238766677e-007	1.062670e+001	2.000000e-002
3.580056426266677e-007	1.072793e+001	2.000000e-002
3.590798613766678e-007	1.078235e+001	2.000000e-002
3.601707762268591e-007	1.080842e+001	2.000000e-002
3.604493651450699e-007	1.080811e+001	2.000000e-002
3.607279540632807e-007	1.080693e+001	2.000000e-002
3.610065429814915e-007	1.080487e+001	2.000000e-002
3.612851318997023e-007	1.080194e+001	2.000000e-002
3.615637208179131e-007	1.079812e+001	2.000000e-002
3.618423097361239e-007	1.079343e+001	2.000000e-002
3.621208986543347e-007	1.078786e+001	2.000000e-002
3.627467843816487e-007	1.077427e+001	2.000000e-002
3.638210031316487e-007	1.074954e+001	2.000000e-002
3.648918872459072e-007	1.072558e+001	2.000000e-002
3.659661059959072e-007	1.070460e+001	2.000000e-002
3.670403247459072e-007	1.068830e+001	2.000000e-002
3.681145434959072e-007	1.067702e+001	2.000000e-002
3.689257812500000e-007	1.067150e+001	2.000000e-002
3.690966038552593e-007	1.067080e+001	2.000000e-002
3.694382490657780e-007	1.067008e+001	2.000000e-002
3.700000000000000e-007	1.066948e+001	2.000000e-002
3.700561750934221e-007	1.066951e+001	1.994382e-002
3.701685252802665e-007	1.066961e+001	1.983147e-002
3.703932256539553e-007	1.066988e+001	1.960677e-002
3.704494007473775e-007	1.066997e+001	1.955060e-002
3.705617509342219e-007	1.067021e+001	1.943825e-002
3.707864513079107e-007	1.067076e+001	1.921355e-002
3.708426264013328e-007	1.067091e+001	1.915737e-002
3.709549765881772e-007	1.067128e+001	1.904502e-002
3.711796769618660e-007	1.067212e+001	1.882032e-002
3.716290777092436e-007	1.067418e+001	1.837092e-002
3.725278792039987e-007	1.067906e+001	1.747212e-002
3.730924037765891e-007	1.068239e+001	1.690760e-002
3.734653432342445e-007	1.068454e+001	1.653466e-002
3.738142617398353e-007	1.068622e+001	1.618574e-002
3.741302011165434e-007	1.068725e+001	1.586980e-002
3.744128492144188e-007	1.068758e+001	1.558715e-002
3.746414591780775e-007	1.068719e+001	1.535854e-002
3.749119477301918e-007	1.068575e+001	1.508805e-002
3.751756712349832e-007	1.068281e+001	1.482433e-002
3.756290328278672e-007	1.067333e+001	1.437097e-002
3.761779777706670e-007	1.065090e+001	1.382202e-002
3.771026893448693e-007	1.057906e+001	1.289731e-002
3.781769080948694e-007	1.043315e+001	1.182309e-002
3.792511268448694e-007	1.019990e+001	1.074887e-002
3.803253455948694e-007	9.861965e+000	9.674654e-003
3.813995643448694e-007	9.410715e+000	8.600435e-003
3.824737830948695e-007	8.844069e+000	7.526217e-003
3.835480018448695e-007	8.188010e+000	6.451998e-003
3.836822791886195e-007	8.097713e+000	6.317721e-003
3.841522498917445e-007	7.760222e+000	5.847750e-003
3.846222205948695e-007	7.404243e+000	5.377779e-003
3.849579139542445e-007	7.139616e+000	5.042086e-003
3.850921912979945e-007	7.030604e+000	4.907809e-003
3.853607459854945e-007	6.807825e+000	4.639254e-003
3.860321327042445e-007	6.235098e+000	3.967867e-003
3.863006873917445e-007	5.995358e+000	3.699313e-003
3.868377967667445e-007	5.501382e+000	3.162203e-003
3.879120155167445e-007	4.474927e+000	2.087984e-003
3.889862342667445e-007	3.408329e+000	1.013766e-003
3.900000000000000e-007	2.373792e+000	3.469447e-017
3.901013765733255e-007	2.267881e+000	0.000000e+000
3.903041297199766e-007	2.055488e+000	0.000000e+000
3.907096360132788e-007	1.628279e+000	0.000000e+000
3.915206485998832e-007	7.692198e-001	0.000000e+000
3.916549259436332e-007	6.263080e-001	0.000000e+000
3.919906193030082e-007	2.677750e-001	0.000000e+000
3.920312840931482e-007	2.242797e-001	0.000000e+000
3.920719488832883e-007	1.807737e-001	0.000000e+000
3.921126136734282e-007	1.372571e-001	0.000000e+000
3.921532784635683e-007	9.372991e-002	0.000000e+000
3.921939432537083e-007	5.019206e-002	0.000000e+000
3.922346080438483e-007	6.643575e-003	0.000000e+000
3.922752728339883e-007	-3.691553e-002	0.000000e+000
3.924284329292031e-007	-2.011583e-001	0.000000e+000
3.925815930244180e-007	-3.654089e-001	0.000000e+000
3.927347531196329e-007	-5.296674e-001	0.000000e+000
3.928879132148477e-007	-6.939337e-001	0.000000e+000
3.930410733100625e-007	-8.582079e-001	0.000000e+000
3.931942334052774e-007	-1.022490e+000	0.000000e+000
3.933473935004922e-007	-1.186780e+000	0.000000e+000
3.944216122504922e-007	-2.332905e+000	0.000000e+000
3.954958310004923e-007	-3.461142e+000	0.000000e+000
3.965700497504923e-007	-4.552033e+000	0.000000e+000
3.976442685004923e-007	-5.582581e+000	0.000000e+000
3.987184872504923e-007	-6.530141e+000	0.000000e+000
3.997927060004924e-007	-7.376441e+000	0.000000e+000
4.008669247504924e-007	-8.109892e+000	0.000000e+000
4.019411435004924e-007	-8.725950e+000	0.000000e+000
4.030153622504925e-007	-9.226352e+000	0.000000e+000
4.040895810004925e-007	-9.618000e+000	0.000000e+000
4.051637997504925e-007	-9.911709e+000	0.000000e+000
4.062380185004925e-007	-1.012079e+001	0.000000e+000
4.073122372504926e-007	-1.025968e+001	0.000000e+000
4.083864560004926e-007	-1.034284e+001	0.000000e+000
4.094606747504926e-007	-1.038487e+001	0.000000e+000
4.103704211252028e-007	-1.039639e+001	0.000000e+000
4.112084532988270e-007	-1.039245e+001	0.000000e+000
4.120835588215781e-007	-1.037910e+001	0.000000e+000
4.131321564378502e-007	-1.035702e+001	0.000000e+000
4.141769353491210e-007	-1.033304e+001	0.000000e+000
4.152511540991210e-007	-1.030970e+001	0.000000e+000
4.163253728491210e-007	-1.029011e+001	0.000000e+000
4.173995915991210e-007	-1.027553e+001	0.000000e+000
4.184738103491211e-007	-1.026560e+001	0.000000e+000
4.189257812500000e-007	-1.026290e+001	0.000000e+000
4.190960581982422e-007	-1.026227e+001	0.000000e+000
4.194366120947266e-007	-1.026154e+001	0.000000e+000
4.200000000000000e-007	-1.026094e+001	0.000000e+000
4.200563387905274e-007	-1.026097e+001	5.633879e-005
4.201690163715820e-007	-1.026106e+001	1.690164e-004
4.204123702599398e-007	-1.026136e+001	4.123703e-004
4.204531036225727e-007	-1.026143e+001	4.531036e-004
4.204938369852055e-007	-1.026150e+001	4.938370e-004
4.205345703478384e-007	-1.026158e+001	5.345704e-004
4.205753037104712e-007	-1.026167e+001	5.753037e-004
4.206160370731041e-007	-1.026176e+001	6.160371e-004
4.206567704357369e-007	-1.026186e+001	6.567704e-004
4.206975037983698e-007	-1.026196e+001	6.975038e-004
4.207934970050280e-007	-1.026223e+001	7.934970e-004
4.209854834183445e-007	-1.026286e+001	9.854834e-004
4.213694562449773e-007	-1.026443e+001	1.369456e-003
4.221374018982431e-007	-1.026831e+001	2.137402e-003
4.228607229283457e-007	-1.027250e+001	2.860723e-003
4.233096035743182e-007	-1.027517e+001	3.309604e-003
4.236634726893501e-007	-1.027708e+001	3.663473e-003
4.239777471972644e-007	-1.027838e+001	3.977747e-003
4.242733897308479e-007	-1.027907e+001	4.273390e-003
4.245351032908133e-007	-1.027906e+001	4.535103e-003
4.247505699467475e-007	-1.027840e+001	4.750570e-003
4.250076552886295e-007	-1.027651e+001	5.007655e-003
4.253367921435766e-007	-1.027182e+001	5.336792e-003
4.258211267131071e-007	-1.025882e+001	5.821127e-003
4.264837383517599e-007	-1.022346e+001	6.483738e-003
4.275579571017599e-007	-1.011740e+001	7.557957e-003
4.286321758517599e-007	-9.937984e+000	8.632176e-003
4.297063946017599e-007	-9.661905e+000	9.706395e-003
4.307806133517600e-007	-9.276634e+000	1.078061e-002
4.318548321017600e-007	-8.776381e+000	1.185483e-002
4.329290508517600e-007	-8.161639e+000	1.292905e-002
4.341375469455100e-007	-7.363715e+000	1.413755e-002
4.344061016330100e-007	-7.160532e+000	1.440610e-002
4.349432110080100e-007	-6.733809e+000	1.494321e-002
4.360174297580101e-007	-5.840015e+000	1.601743e-002
4.364202617892600e-007	-5.481800e+000	1.642026e-002
4.380315899142601e-007	-3.953406e+000	1.803159e-002
4.389257812500000e-007	-3.063626e+000	1.892578e-002
4.400000000000000e-007	-1.966489e+000	2.000000e-002
4.401074218750000e-007	-1.854219e+000	2.000000e-002
4.403222656250000e-007	-1.629042e+000	2.000000e-002
4.407519531250000e-007	-1.176020e+000	2.000000e-002
4.416113281249999e-007	-2.649191e-001	2.000000e-002
4.417456054687499e-007	-1.219188e-001	2.000000e-002
4.417667280369225e-007	-9.936192e-002	2.000000e-002
4.417878506050952e-007	-7.680174e-002	2.000000e-002
4.418089731732678e-007	-5.423827e-002	2.000000e-002
4.418300957414405e-007	-3.167148e-002	2.000000e-002
4.418512183096131e-007	-9.101394e-003	2.000000e-002
4.418723408777857e-007	1.347200e-002	2.000000e-002
4.418934634459583e-007	3.604870e-002	2.000000e-002
4.419700434935657e-007	1.179456e-001	2.000000e-002
4.420466235411732e-007	1.998830e-001	2.000000e-002
4.421232035887806e-007	2.818609e-001	2.000000e-002
4.421997836363880e-007	3.638793e-001	2.000000e-002
4.422763636839954e-007	4.459381e-001	2.000000e-002
4.423529437316029e-007	5.280375e-001	2.000000e-002
4.424295237792103e-007	6.101774e-001	2.000000e-002
4.429666331542103e-007	1.186268e+000	2.000000e-002
4.440408519042103e-007	2.335511e+000	2.000000e-002
4.451150706542103e-007	3.472016e+000	2.000000e-002
4.461892894042103e-007	4.578676e+000	2.000000e-002
4.472635081542104e-007	5.633468e+000	2.000000e-002
4.483377269042104e-007	6.613102e+000	2.000000e-002
4.494119456542104e-007	7.497298e+000	2.000000e-002
4.504861644042104e-007	8.271896e+000	2.000000e-002
4.515603831542105e-007	8.929882e+000	2.000000e-002
4.526346019042105e-007	9.470885e+000	2.000000e-002
4.537088206542105e-007	9.900118e+000	2.000000e-002
4.547830394042105e-007	1.022716e+001	2.000000e-002
4.558572581542106e-007	1.046460e+001	2.000000e-002
4.569314769042106e-007	1.062665e+001	2.000000e-002
4.580056956542106e-007	1.072787e+001	2.000000e-002
4.590799144042107e-007	1.078230e+001	2.000000e-002
4.601708203850923e-007	1.080836e+001	2.000000e-002
4.604492570723324e-007	1.080806e+001	2.000000e-002
4.607276937595725e-007	1.080688e+001	2.000000e-002
4.610061304468125e-007	1.080482e+001	2.000000e-002
4.612845671340526e-007	1.080189e+001	2.000000e-002
4.615630038212926e-007	1.079808e+001	2.000000e-002
4.618414405085327e-007	1.079339e+001	2.000000e-002
4.621198771957728e-007	1.078783e+001	2.000000e-002
4.627453965290520e-007	1.077424e+001	2.000000e-002
4.638196152790520e-007	1.074952e+001	2.000000e-002
4.648903744903976e-007	1.072556e+001	2.000000e-002
4.659645932403977e-007	1.070457e+001	2.000000e-002
4.670388119903977e-007	1.068826e+001	2.000000e-002
4.681130307403977e-007	1.067698e+001	2.000000e-002
4.689257812500000e-007	1.067145e+001	2.000000e-002
4.690965684599291e-007	1.067075e+001	2.000000e-002
4.694381428797873e-007	1.067002e+001	2.000000e-002
4.700000000000000e-007	1.066943e+001	2.000000e-002
4.700561857120212e-007	1.066946e+001	1.994381e-002
4.701685571360638e-007	1.066955e+001	1.983144e-002
4.703932999841489e-007	1.066983e+001	1.960670e-002
4.704494856961702e-007	1.066992e+001	1.955051e-002
4.705618571202127e-007	1.067015e+001	1.943814e-002
4.707865999682978e-007	1.067070e+001	1.921340e-002
4.708427856803191e-007	1.067086e+001	1.915721e-002
4.709551571043616e-007	1.067122e+001	1.904484e-002
4.711798999524467e-007	1.067206e+001	1.882010e-002
4.716293856486169e-007	1.067413e+001	1.837061e-002
4.725283570409573e-007	1.067901e+001	1.747164e-002
4.730927572973055e-007	1.068234e+001	1.690724e-002
4.734656122722253e-007	1.068448e+001	1.653439e-002
4.738145120496158e-007	1.068616e+001	1.618549e-002
4.741304434289080e-007	1.068720e+001	1.586956e-002
4.744130611847788e-007	1.068752e+001	1.558694e-002
4.746416066256714e-007	1.068713e+001	1.535839e-002
4.749121719194641e-007	1.068569e+001	1.508783e-002
4.751760103504918e-007	1.068274e+001	1.482399e-002
4.756295113559436e-007	1.067326e+001	1.437049e-002
4.761786443436310e-007	1.065081e+001	1.382136e-002
4.771037838797803e-007	1.057889e+001	1.289622e-002
4.781780026297803e-007	1.043290e+001	1.182200e-002
4.792522213797803e-007	1.019955e+001	1.074778e-002
4.803264401297802e-007	9.861507e+000	9.673560e-003
4.814006588797802e-007	9.410140e+000	8.599341e-003
4.824748776297802e-007	8.843378e+000	7.525122e-003
4.835490963797802e-007	8.187206e+000	6.450904e-003
4.836833737235302e-007	8.096895e+000	6.316626e-003
4.841533444266553e-007	7.759360e+000	5.846655e-003
4.846233151297803e-007	7.403338e+000	5.376685e-003
4.849590084891554e-007	7.138682e+000	5.040992e-003
4.850932858329054e-007	7.029660e+000	4.906714e-003
4.853618405204054e-007	6.806859e+000	4.638160e-003
4.860332272391554e-007	6.234082e+000	3.966773e-003
4.863017819266554e-007	5.994324e+000	3.698218e-003
4.868388913016554e-007	5.500317e+000	3.161109e-003
4.879131100516554e-007	4.473806e+000	2.086890e-003
4.889873288016554e-007	3.407173e+000	1.012671e-003
4.900000000000000e-007	2.373735e+000	3.469447e-017
4.901012671198344e-007	2.267938e+000	0.000000e+000
4.903038013595034e-007	2.055775e+000	0.000000e+000
4.907088698388412e-007	1.629032e+000	0.000000e+000
4.915190067975169e-007	7.709109e-001	0.000000e+000
4.916532841412669e-007	6.280011e-001	0.000000e+000
4.919889775006419e-007	2.694728e-001	0.000000e+000
4.922407475201732e-007	9.941216e-006	0.000000e+000
4.922455221232622e-007	-5.104240e-003	0.000000e+000
4.922502967263511e-007	-1.021854e-002	0.000000e+000
4.922550713294401e-007	-1.533295e-002	0.000000e+000
4.922598459325291e-007	-2.044748e-002	0.000000e+000
4.922646205356181e-007	-2.556212e-002	0.000000e+000
4.922693951387070e-007	-3.067689e-002	0.000000e+000
4.922741697417960e-007	-3.579176e-002	0.000000e+000
4.924274797001177e-007	-2.001943e-001	0.000000e+000
4.925807896584394e-007	-3.646049e-001	0.000000e+000
4.927340996167611e-007	-5.290237e-001	0.000000e+000
4.928874095750829e-007	-6.934506e-001	0.000000e+000
4.930407195334046e-007	-8.578856e-001	0.000000e+000
4.931940294917263e-007	-1.022329e+000	0.000000e+000
4.933473394500480e-007	-1.186780e+000	0.000000e+000
4.944215582000479e-007	-2.332907e+000	0.000000e+000
4.954957769500479e-007	-3.461145e+000	0.000000e+000
4.965699957000479e-007	-4.552040e+000	0.000000e+000
4.976442144500479e-007	-5.582591e+000	0.000000e+000
4.987184332000478e-007	-6.530155e+000	0.000000e+000
4.997926519500478e-007	-7.376460e+000	0.000000e+000
5.008668707000478e-007	-8.109916e+000	0.000000e+000
5.019410894500478e-007	-8.725979e+000	0.000000e+000
5.030153082000477e-007	-9.226385e+000	0.000000e+000
5.040895269500477e-007	-9.618038e+000	0.000000e+000
5.051637457000477e-007	-9.911751e+000	0.000000e+000
5.062379644500477e-007	-1.012083e+001	0.000000e+000
5.073121832000476e-007	-1.025973e+001	0.000000e+000
5.083864019500476e-007	-1.034289e+001	0.000000e+000
5.094606207000476e-007	-1.038492e+001	0.000000e+000
5.103704190394003e-007	-1.039644e+001	0.000000e+000
5.112084553575567e-007	-1.039251e+001	0.000000e+000
5.120835697776929e-007	-1.037915e+001	0.000000e+000
5.131321510010265e-007	-1.035707e+001	0.000000e+000
5.141769341669397e-007	-1.033309e+001	0.000000e+000
5.152511529169396e-007	-1.030976e+001	0.000000e+000
5.163253716669396e-007	-1.029016e+001	0.000000e+000
5.173995904169396e-007	-1.027559e+001	0.000000e+000
5.184738091669396e-007	-1.026566e+001	0.000000e+000
5.189257812500000e-007	-1.026295e+001	0.000000e+000
5.190960558338791e-007	-1.026232e+001	0.000000e+000
5.194366050016372e-007	-1.026160e+001	0.000000e+000
5.200000000000000e-007	-1.026099e+001	0.000000e+000
5.200563394998363e-007	-1.026103e+001	5.633950e-005
5.201690184995088e-007	-1.026112e+001	1.690185e-004
5.204123751597439e-007	-1.026141e+001	4.123752e-004
5.204531075047759e-007	-1.026148e+001	4.531075e-004
5.204938398498080e-007	-1.026156e+001	4.938398e-004
5.205345721948400e-007	-1.026164e+001	5.345722e-004
5.205753045398721e-007	-1.026173e+001	5.753045e-004
5.206160368849041e-007	-1.026182e+001	6.160369e-004
5.206567692299361e-007	-1.026192e+001	6.567692e-004
5.206975015749682e-007	-1.026202e+001	6.975016e-004
5.207934944330475e-007	-1.026229e+001	7.934945e-004
5.209854801492060e-007	-1.026291e+001	9.854801e-004
5.213694515815233e-007	-1.026448e+001	1.369452e-003
5.221373944461577e-007	-1.026837e+001	2.137394e-003
5.228607178418451e-007	-1.027255e+001	2.860718e-003
5.233095994261063e-007	-1.027523e+001	3.309599e-003
5.236634685364771e-007	-1.027713e+001	3.663469e-003
5.239777433222269e-007	-1.027844e+001	3.977743e-003
5.242733859674383e-007	-1.027913e+001	4.273386e-003
5.245350996578304e-007	-1.027912e+001	4.535099e-003
5.247505652946713e-007	-1.027845e+001	4.750565e-003
5.250076521798765e-007	-1.027657e+001	5.007652e-003
5.253367866850338e-007	-1.027188e+001	5.336787e-003
5.258211213191832e-007	-1.025887e+001	5.821121e-003
5.264837285265082e-007	-1.022351e+001	6.483729e-003
5.275579472765082e-007	-1.011746e+001	7.557947e-003
5.286321660265081e-007	-9.938042e+000	8.632166e-003
5.297063847765081e-007	-9.661964e+000	9.706385e-003
5.307806035265081e-007	-9.276693e+000	1.078060e-002
5.318548222765080e-007	-8.776442e+000	1.185482e-002
5.329290410265080e-007	-8.161701e+000	1.292904e-002
5.341375371202580e-007	-7.363779e+000	1.413754e-002
5.344060918077580e-007	-7.160595e+000	1.440609e-002
5.349432011827580e-007	-6.733873e+000	1.494320e-002
5.360174199327580e-007	-5.840080e+000	1.601742e-002
5.364202519640080e-007	-5.481865e+000	1.642025e-002
5.380315800890080e-007	-3.953471e+000	1.803158e-002
5.389257812500000e-007	-3.063681e+000	1.892578e-002
5.400000000000000e-007	-1.966545e+000	2.000000e-002
5.401074218750000e-007	-1.854275e+000	2.000000e-002
5.403222656250000e-007	-1.629098e+000	2.000000e-002
5.407519531250000e-007	-1.176076e+000	2.000000e-002
5.416113281250000e-007	-2.649750e-001	2.000000e-002
5.417456054687500e-007	-1.219747e-001	2.000000e-002
5.417667355042380e-007	-9.940988e-002	2.000000e-002
5.417878655397260e-007	-7.684173e-002	2.000000e-002
5.418089955752139e-007	-5.427027e-002	2.000000e-002
5.418301256107018e-007	-3.169551e-002	2.000000e-002
5.418512556461897e-007	-9.117435e-003	2.000000e-002
5.418723856816778e-007	1.346395e-002	2.000000e-002
5.418935157171657e-007	3.604864e-002	2.000000e-002
5.419700957647731e-007	1.179456e-001	2.000000e-002
5.420466758123805e-007	1.998830e-001	2.000000e-002
5.421232558599879e-007	2.818609e-001	2.000000e-002
5.421998359075954e-007	3.638793e-001	2.000000e-002
5.422764159552028e-007	4.459382e-001	2.000000e-002
5.423529960028102e-007	5.280376e-001	2.000000e-002
5.424295760504176e-007	6.101775e-001	2.000000e-002
5.429666854254176e-007	1.186268e+000	2.000000e-002
5.440409041754176e-007	2.335511e+000	2.000000e-002
5.451151229254176e-007	3.472015e+000	2.000000e-002
5.461893416754176e-007	4.578673e+000	2.000000e-002
5.472635604254175e-007	5.633462e+000	2.000000e-002
5.483377791754175e-007	6.613091e+000	2.000000e-002
5.494119979254175e-007	7.497283e+000	2.000000e-002
5.504862166754174e-007	8.271875e+000	2.000000e-002
5.515604354254174e-007	8.929855e+000	2.000000e-002
5.526346541754174e-007	9.470854e+000	2.000000e-002
5.537088729254174e-007	9.900080e+000	2.000000e-002
5.547830916754173e-007	1.022711e+001	2.000000e-002
5.558573104254173e-007	1.046455e+001	2.000000e-002
5.569315291754173e-007	1.062660e+001	2.000000e-002
5.580057479254173e-007	1.072782e+001	2.000000e-002
5.590799666754172e-007	1.078224e+001	2.000000e-002
5.601708639146963e-007	1.080830e+001	2.000000e-002
5.604491505675492e-007	1.080800e+001	2.000000e-002
5.607274372204021e-007	1.080682e+001	2.000000e-002
5.610057238732550e-007	1.080477e+001	2.000000e-002
5.612840105261079e-007	1.080184e+001	2.000000e-002
5.615622971789608e-007	1.079803e+001	2.000000e-002
5.618405838318137e-007	1.079335e+001	2.000000e-002
5.621188704846666e-007	1.078779e+001	2.000000e-002
5.627440287366924e-007	1.077422e+001	2.000000e-002
5.638182474866923e-007	1.074949e+001	2.000000e-002
5.648888834977460e-007	1.072554e+001	2.000000e-002
5.659631022477460e-007	1.070454e+001	2.000000e-002
5.670373209977459e-007	1.068823e+001	2.000000e-002
5.681115397477459e-007	1.067694e+001	2.000000e-002
5.689257812500001e-007	1.067139e+001	2.000000e-002
5.690965338181459e-007	1.067069e+001	2.000000e-002
5.694380389544374e-007	1.066997e+001	2.000000e-002
5.699999999999999e-007	1.066937e+001	2.000000e-002
5.700561961045562e-007	1.066940e+001	1.994380e-002
5.701685883136687e-007	1.066950e+001	1.983141e-002
5.703933727318938e-007	1.066977e+001	1.960663e-002
5.704495688364501e-007	1.066986e+001	1.955043e-002
5.705619610455626e-007	1.067010e+001	1.943804e-002
5.707867454637877e-007	1.067064e+001	1.921325e-002
5.708429415683440e-007	1.067080e+001	1.915706e-002
5.709553337774565e-007	1.067117e+001	1.904467e-002
5.711801181956816e-007	1.067201e+001	1.881988e-002
5.716296870321317e-007	1.067407e+001	1.837031e-002
5.725288247050320e-007	1.067896e+001	1.747118e-002
5.730931034518222e-007	1.068229e+001	1.690690e-002
5.734658757504156e-007	1.068443e+001	1.653412e-002
5.738147571331976e-007	1.068611e+001	1.618524e-002
5.741306806186714e-007	1.068714e+001	1.586932e-002
5.744132686336073e-007	1.068747e+001	1.558673e-002
5.746417508844046e-007	1.068708e+001	1.535825e-002
5.749123912416502e-007	1.068563e+001	1.508761e-002
5.751763419798926e-007	1.068268e+001	1.482366e-002
5.756299793886089e-007	1.067319e+001	1.437002e-002
5.761792962761488e-007	1.065072e+001	1.382070e-002
5.771048547779363e-007	1.057872e+001	1.289515e-002
5.781790735279363e-007	1.043266e+001	1.182093e-002
5.792532922779363e-007	1.019921e+001	1.074671e-002
5.803275110279362e-007	9.861058e+000	9.672489e-003
5.814017297779362e-007	9.409575e+000	8.598270e-003
5.824759485279362e-007	8.842700e+000	7.524052e-003
5.835501672779362e-007	8.186419e+000	6.449833e-003
5.836844446216862e-007	8.096094e+000	6.315555e-003
5.841544153248113e-007	7.758515e+000	5.845585e-003
5.846243860279363e-007	7.402452e+000	5.375614e-003
5.849600793873114e-007	7.137769e+000	5.039921e-003
5.850943567310614e-007	7.028736e+000	4.905643e-003
5.853629114185614e-007	6.805914e+000	4.637089e-003
5.860342981373114e-007	6.233088e+000	3.965702e-003
5.863028528248114e-007	5.993312e+000	3.697147e-003
5.868399621998114e-007	5.499273e+000	3.160038e-003
5.879141809498114e-007	4.472709e+000	2.085819e-003
5.889883996998114e-007	3.406041e+000	1.011600e-003
5.900000000000000e-007	2.373678e+000	3.469447e-017
5.901011600300188e-007	2.267994e+000	0.000000e+000
5.903034800900566e-007	2.056056e+000	0.000000e+000
5.907081202101321e-007	1.629768e+000	0.000000e+000
5.915174004502830e-007	7.725652e-001	0.000000e+000
5.916516777940331e-007	6.296572e-001	0.000000e+000
5.919873711534081e-007	2.711335e-001	0.000000e+000
5.920284846407583e-007	2.271591e-001	0.000000e+000
5.920695981281086e-007	1.831738e-001	0.000000e+000
5.921107116154588e-007	1.391777e-001	0.000000e+000
5.921518251028091e-007	9.517065e-002	0.000000e+000
5.921929385901593e-007	5.115275e-002	0.000000e+000
5.922340520775096e-007	7.123977e-003	0.000000e+000
5.922751655648599e-007	-3.691567e-002	0.000000e+000
5.924283256600747e-007	-2.011584e-001	0.000000e+000
5.925814857552896e-007	-3.654090e-001	0.000000e+000
5.927346458505044e-007	-5.296674e-001	0.000000e+000
5.928878059457193e-007	-6.939338e-001	0.000000e+000
5.930409660409341e-007	-8.582081e-001	0.000000e+000
5.931941261361490e-007	-1.022490e+000	0.000000e+000
5.933472862313638e-007	-1.186780e+000	0.000000e+000
5.944215049813637e-007	-2.332908e+000	0.000000e+000
5.954957237313637e-007	-3.461149e+000	0.000000e+000
5.965699424813637e-007	-4.552047e+000	0.000000e+000
5.976441612313637e-007	-5.582601e+000	0.000000e+000
5.987183799813636e-007	-6.530170e+000	0.000000e+000
5.997925987313636e-007	-7.376479e+000	0.000000e+000
6.008668174813636e-007	-8.109940e+000	0.000000e+000
6.019410362313636e-007	-8.726008e+000	0.000000e+000
6.030152549813635e-007	-9.226419e+000	0.000000e+000
6.040894737313635e-007	-9.618077e+000	0.000000e+000
6.051636924813635e-007	-9.911794e+000	0.000000e+000
6.062379112313635e-007	-1.012088e+001	0.000000e+000
6.073121299813634e-007	-1.025978e+001	0.000000e+000
6.083863487313634e-007	-1.034294e+001	0.000000e+000
6.094605674813634e-007	-1.038497e+001	0.000000e+000
6.103704135426990e-007	-1.039650e+001	0.000000e+000
6.112084541932128e-007	-1.039256e+001	0.000000e+000
6.120835772370116e-007	-1.037921e+001	0.000000e+000
6.131321436363404e-007	-1.035713e+001	0.000000e+000
6.141769306166091e-007	-1.033315e+001	0.000000e+000
6.152511493666091e-007	-1.030981e+001	0.000000e+000
6.163253681166091e-007	-1.029022e+001	0.000000e+000
6.173995868666090e-007	-1.027564e+001	0.000000e+000
6.184738056166090e-007	-1.026571e+001	0.000000e+000
6.189257812500000e-007	-1.026301e+001	0.000000e+000
6.190960487332180e-007	-1.026238e+001	0.000000e+000
6.194365836996539e-007	-1.026166e+001	0.000000e+000
6.200000000000000e-007	-1.026105e+001	0.000000e+000
6.200563416300346e-007	-1.026108e+001	5.634163e-005
6.201690248901038e-007	-1.026118e+001	1.690249e-004
6.204123898749069e-007	-1.026147e+001	4.123899e-004
6.204531198763089e-007	-1.026154e+001	4.531199e-004
6.204938498777109e-007	-1.026161e+001	4.938499e-004
6.205345798791128e-007	-1.026170e+001	5.345799e-004
6.205753098805149e-007	-1.026178e+001	5.753099e-004
6.206160398819169e-007	-1.026187e+001	6.160399e-004
6.206567698833189e-007	-1.026197e+001	6.567699e-004
6.206974998847209e-007	-1.026207e+001	6.974999e-004
6.207934916962653e-007	-1.026234e+001	7.934917e-004
6.209854753193541e-007	-1.026297e+001	9.854754e-004
6.213694425655316e-007	-1.026454e+001	1.369443e-003
6.221373770578867e-007	-1.026842e+001	2.137377e-003
6.228607077060878e-007	-1.027261e+001	2.860708e-003
6.233095924213557e-007	-1.027528e+001	3.309592e-003
6.236634615710532e-007	-1.027719e+001	3.663462e-003
6.239777373894015e-007	-1.027850e+001	3.977737e-003
6.242733806669534e-007	-1.027918e+001	4.273381e-003
6.245350949239341e-007	-1.027918e+001	4.535095e-003
6.247505588741701e-007	-1.027851e+001	4.750559e-003
6.250076489460532e-007	-1.027662e+001	5.007649e-003
6.253367794711157e-007	-1.027194e+001	5.336780e-003
6.258211150744715e-007	-1.025893e+001	5.821115e-003
6.264837156488985e-007	-1.022357e+001	6.483715e-003
6.275579343988984e-007	-1.011752e+001	7.557935e-003
6.286321531488984e-007	-9.938100e+000	8.632153e-003
6.297063718988984e-007	-9.662024e+000	9.706371e-003
6.307805906488984e-007	-9.276754e+000	1.078059e-002
6.318548093988983e-007	-8.776504e+000	1.185481e-002
6.329290281488983e-007	-8.161764e+000	1.292903e-002
6.341375242426483e-007	-7.363843e+000	1.413752e-002
6.344060789301483e-007	-7.160660e+000	1.440608e-002
6.349431883051483e-007	-6.733939e+000	1.494319e-002
6.360174070551483e-007	-5.840147e+000	1.601741e-002
6.364202390863983e-007	-5.481932e+000	1.642024e-002
6.380315672113983e-007	-3.953539e+000	1.803157e-002
6.389257812500000e-007	-3.063736e+000	1.892578e-002
6.400000000000000e-007	-1.966601e+000	2.000000e-002
6.401074218750000e-007	-1.854330e+000	2.000000e-002
6.403222656250000e-007	-1.629153e+000	2.000000e-002
6.407519531250000e-007	-1.176131e+000	2.000000e-002
6.416113281250000e-007	-2.650302e-001	2.000000e-002
6.417456054687500e-007	-1.220299e-001	2.000000e-002
6.417666679439572e-007	-9.953709e-002	2.000000e-002
6.417877304191644e-007	-7.704103e-002	2.000000e-002
6.418087928943716e-007	-5.454173e-002	2.000000e-002
6.418298553695787e-007	-3.203919e-002	2.000000e-002
6.418509178447859e-007	-9.533401e-003	2.000000e-002
6.418719803199931e-007	1.297563e-002	2.000000e-002
6.418930427952003e-007	3.548792e-002	2.000000e-002
6.419696977743612e-007	1.174647e-001	2.000000e-002
6.420463527535220e-007	1.994820e-001	2.000000e-002
6.421230077326829e-007	2.815399e-001	2.000000e-002
6.421996627118436e-007	3.636385e-001	2.000000e-002
6.422763176910045e-007	4.457776e-001	2.000000e-002
6.423529726701653e-007	5.279573e-001	2.000000e-002
6.424296276493262e-007	6.101776e-001	2.000000e-002
6.429667370243262e-007	1.186268e+000	2.000000e-002
6.440409557743262e-007	2.335511e+000	2.000000e-002
6.451151745243262e-007	3.472014e+000	2.000000e-002
6.461893932743261e-007	4.578671e+000	2.000000e-002
6.472636120243261e-007	5.633456e+000	2.000000e-002
6.483378307743261e-007	6.613081e+000	2.000000e-002
6.494120495243261e-007	7.497268e+000	2.000000e-002
6.504862682743260e-007	8.271855e+000	2.000000e-002
6.515604870243260e-007	8.929829e+000	2.000000e-002
6.526347057743260e-007	9.470821e+000	2.000000e-002
6.537089245243260e-007	9.900043e+000	2.000000e-002
6.547831432743259e-007	1.022707e+001	2.000000e-002
6.558573620243259e-007	1.046451e+001	2.000000e-002
6.569315807743259e-007	1.062655e+001	2.000000e-002
6.580057995243258e-007	1.072777e+001	2.000000e-002
6.590800182743258e-007	1.078219e+001	2.000000e-002
6.601709067034654e-007	1.080825e+001	2.000000e-002
6.604490421256302e-007	1.080795e+001	2.000000e-002
6.607271775477952e-007	1.080677e+001	2.000000e-002
6.610053129699600e-007	1.080472e+001	2.000000e-002
6.612834483921248e-007	1.080179e+001	2.000000e-002
6.615615838142897e-007	1.079799e+001	2.000000e-002
6.618397192364546e-007	1.079331e+001	2.000000e-002
6.621178546586194e-007	1.078775e+001	2.000000e-002
6.627426488385387e-007	1.077419e+001	2.000000e-002
6.638168675885387e-007	1.074947e+001	2.000000e-002
6.648873791411733e-007	1.072551e+001	2.000000e-002
6.659615978911733e-007	1.070451e+001	2.000000e-002
6.670358166411733e-007	1.068819e+001	2.000000e-002
6.681100353911733e-007	1.067690e+001	2.000000e-002
6.689257812500001e-007	1.067134e+001	2.000000e-002
6.690964986736765e-007	1.067064e+001	2.000000e-002
6.694379335210294e-007	1.066991e+001	2.000000e-002
6.699999999999999e-007	1.066931e+001	2.000000e-002
6.700562066478970e-007	1.066935e+001	1.994379e-002
6.701686199436911e-007	1.066944e+001	1.983138e-002
6.703934465352793e-007	1.066971e+001	1.960655e-002
6.704496531831764e-007	1.066981e+001	1.955035e-002
6.705620664789705e-007	1.067004e+001	1.943793e-002
6.707868930705587e-007	1.067059e+001	1.921311e-002
6.708430997184557e-007	1.067075e+001	1.915690e-002
6.709555130142498e-007	1.067111e+001	1.904449e-002
6.711803396058381e-007	1.067195e+001	1.881966e-002
6.716299927890146e-007	1.067402e+001	1.837001e-002
6.725292991553677e-007	1.067890e+001	1.747070e-002
6.730934546193236e-007	1.068223e+001	1.690654e-002
6.734661430971474e-007	1.068437e+001	1.653386e-002
6.738150058449041e-007	1.068606e+001	1.618499e-002
6.741309213430467e-007	1.068709e+001	1.586908e-002
6.744134791807329e-007	1.068741e+001	1.558652e-002
6.746418972830001e-007	1.068702e+001	1.535810e-002
6.749126138083489e-007	1.068558e+001	1.508739e-002
6.751766783784639e-007	1.068262e+001	1.482332e-002
6.756304542110714e-007	1.067312e+001	1.436955e-002
6.761799576086443e-007	1.065062e+001	1.382004e-002
6.771059414356731e-007	1.057856e+001	1.289406e-002
6.781801601856731e-007	1.043242e+001	1.181984e-002
6.792543789356730e-007	1.019887e+001	1.074562e-002
6.803285976856730e-007	9.860605e+000	9.671402e-003
6.814028164356730e-007	9.409006e+000	8.597184e-003
6.824770351856730e-007	8.842014e+000	7.522965e-003
6.835512539356729e-007	8.185621e+000	6.448746e-003
6.836855312794230e-007	8.095284e+000	6.314469e-003
6.841555019825481e-007	7.757660e+000	5.844498e-003
6.846254726856731e-007	7.401555e+000	5.374528e-003
6.849611660450481e-007	7.136843e+000	5.038834e-003
6.850954433887982e-007	7.027799e+000	4.904557e-003
6.853639980762982e-007	6.804956e+000	4.636002e-003
6.860353847950482e-007	6.232080e+000	3.964615e-003
6.863039394825482e-007	5.992288e+000	3.696061e-003
6.868410488575482e-007	5.498216e+000	3.158951e-003
6.879152676075482e-007	4.471598e+000	2.084732e-003
6.889894863575481e-007	3.404895e+000	1.010514e-003
6.900000000000000e-007	2.373622e+000	3.469447e-017
6.901010513642452e-007	2.268052e+000	0.000000e+000
6.903031540927356e-007	2.056343e+000	0.000000e+000
6.907073595497164e-007	1.630517e+000	0.000000e+000
6.915157704636779e-007	7.742453e-001	0.000000e+000
6.916500478074280e-007	6.313393e-001	0.000000e+000
6.919857411668030e-007	2.728202e-001	0.000000e+000
6.920270799961995e-007	2.286052e-001	0.000000e+000
6.920684188255958e-007	1.843792e-001	0.000000e+000
6.921097576549923e-007	1.401423e-001	0.000000e+000
6.921510964843887e-007	9.589427e-002	0.000000e+000
6.921924353137852e-007	5.163527e-002	0.000000e+000
6.922337741431815e-007	7.365269e-003	0.000000e+000
6.922751129725780e-007	-3.691574e-002	0.000000e+000
6.924282730677928e-007	-2.011584e-001	0.000000e+000
6.925814331630077e-007	-3.654089e-001	0.000000e+000
6.927345932582225e-007	-5.296674e-001	0.000000e+000
6.928877533534374e-007	-6.939339e-001	0.000000e+000
6.930409134486522e-007	-8.582082e-001	0.000000e+000
6.931940735438671e-007	-1.022491e+000	0.000000e+000
6.933472336390819e-007	-1.186781e+000	0.000000e+000
6.944214523890819e-007	-2.332910e+000	0.000000e+000
6.954956711390819e-007	-3.461153e+000	0.000000e+000
6.965698898890819e-007	-4.552053e+000	0.000000e+000
6.976441086390818e-007	-5.582611e+000	0.000000e+000
6.987183273890818e-007	-6.530183e+000	0.000000e+000
6.997925461390818e-007	-7.376496e+000	0.000000e+000
7.008667648890817e-007	-8.109962e+000	0.000000e+000
7.019409836390817e-007	-8.726036e+000	0.000000e+000
7.030152023890817e-007	-9.226452e+000	0.000000e+000
7.040894211390817e-007	-9.618114e+000	0.000000e+000
7.051636398890816e-007	-9.911835e+000	0.000000e+000
7.062378586390816e-007	-1.012092e+001	0.000000e+000
7.073120773890816e-007	-1.025982e+001	0.000000e+000
7.083862961390816e-007	-1.034299e+001	0.000000e+000
7.094605148890815e-007	-1.038503e+001	0.000000e+000
7.103704119218896e-007	-1.039655e+001	0.000000e+000
7.112084565824320e-007	-1.039262e+001	0.000000e+000
7.120835883238493e-007	-1.037926e+001	0.000000e+000
7.131321384877424e-007	-1.035718e+001	0.000000e+000
7.141769297246365e-007	-1.033320e+001	0.000000e+000
7.152511484746365e-007	-1.030987e+001	0.000000e+000
7.163253672246365e-007	-1.029027e+001	0.000000e+000
7.173995859746364e-007	-1.027570e+001	0.000000e+000
7.184738047246364e-007	-1.026577e+001	0.000000e+000
7.189257812500000e-007	-1.026306e+001	0.000000e+000
7.190960469492728e-007	-1.026243e+001	0.000000e+000
7.194365783478183e-007	-1.026171e+001	0.000000e+000
7.200000000000000e-007	-1.026110e+001	0.000000e+000
7.200563421652181e-007	-1.026114e+001	5.634216e-005
7.201690264956544e-007	-1.026123e+001	1.690265e-004
7.204123935718778e-007	-1.026152e+001	4.123936e-004
7.204531229581880e-007	-1.026159e+001	4.531230e-004
7.204938523444984e-007	-1.026167e+001	4.938523e-004
7.205345817308087e-007	-1.026175e+001	5.345817e-004
7.205753111171191e-007	-1.026184e+001	5.753111e-004
7.206160405034294e-007	-1.026193e+001	6.160405e-004
7.206567698897397e-007	-1.026203e+001	6.567699e-004
7.206974992760500e-007	-1.026213e+001	6.974993e-004
7.207934908245869e-007	-1.026240e+001	7.934908e-004
7.209854739216607e-007	-1.026302e+001	9.854740e-004
7.213694401158081e-007	-1.026459e+001	1.369440e-003
7.221373725041032e-007	-1.026848e+001	2.137373e-003
7.228607040090463e-007	-1.027266e+001	2.860704e-003
7.233095890609499e-007	-1.027534e+001	3.309589e-003
7.236634582300287e-007	-1.027724e+001	3.663458e-003
7.239777341304278e-007	-1.027855e+001	3.977734e-003
7.242733774014923e-007	-1.027924e+001	4.273377e-003
7.245350917249906e-007	-1.027923e+001	4.535092e-003
7.247505547832612e-007	-1.027856e+001	4.750555e-003
7.250076461133140e-007	-1.027668e+001	5.007646e-003
7.253367746267705e-007	-1.027199e+001	5.336775e-003
7.258211102459623e-007	-1.025898e+001	5.821110e-003
7.264837070659521e-007	-1.022363e+001	6.483707e-003
7.275579258159521e-007	-1.011757e+001	7.557926e-003
7.286321445659521e-007	-9.938156e+000	8.632145e-003
7.297063633159521e-007	-9.662081e+000	9.706363e-003
7.307805820659520e-007	-9.276813e+000	1.078058e-002
7.318548008159520e-007	-8.776563e+000	1.185480e-002
7.329290195659520e-007	-8.161824e+000	1.292902e-002
7.341375156597020e-007	-7.363904e+000	1.413752e-002
7.344060703472020e-007	-7.160721e+000	1.440607e-002
7.349431797222020e-007	-6.734000e+000	1.494318e-002
7.360173984722020e-007	-5.840208e+000	1.601740e-002
7.364202305034520e-007	-5.481994e+000	1.642023e-002
7.380315586284520e-007	-3.953602e+000	1.803156e-002
7.389257812500000e-007	-3.063791e+000	1.892578e-002
7.400000000000000e-007	-1.966655e+000	2.000000e-002
7.401074218750000e-007	-1.854385e+000	2.000000e-002
7.403222656250000e-007	-1.629208e+000	2.000000e-002
7.407519531250000e-007	-1.176185e+000	2.000000e-002
7.416113281250000e-007	-2.650846e-001	2.000000e-002
7.417456054687500e-007	-1.220843e-001	2.000000e-002
7.417666752091828e-007	-9.958374e-002	2.000000e-002
7.417877449496156e-007	-7.707993e-002	2.000000e-002
7.418088146900483e-007	-5.457286e-002	2.000000e-002
7.418298844304810e-007	-3.206255e-002	2.000000e-002
7.418509541709138e-007	-9.548994e-003	2.000000e-002
7.418720239113466e-007	1.296781e-002	2.000000e-002
7.418930936517793e-007	3.548787e-002	2.000000e-002
7.419697486309402e-007	1.174646e-001	2.000000e-002
7.420464036101010e-007	1.994820e-001	2.000000e-002
7.421230585892619e-007	2.815400e-001	2.000000e-002
7.421997135684227e-007	3.636385e-001	2.000000e-002
7.422763685475836e-007	4.457777e-001	2.000000e-002
7.423530235267444e-007	5.279574e-001	2.000000e-002
7.424296785059053e-007	6.101778e-001	2.000000e-002
7.429667878809053e-007	1.186269e+000	2.000000e-002
7.440410066309053e-007	2.335511e+000	2.000000e-002
7.451152253809052e-007	3.472013e+000	2.000000e-002
7.461894441309052e-007	4.578668e+000	2.000000e-002
7.472636628809052e-007	5.633451e+000	2.000000e-002
7.483378816309052e-007	6.613071e+000	2.000000e-002
7.494121003809051e-007	7.497253e+000	2.000000e-002
7.504863191309051e-007	8.271835e+000	2.000000e-002
7.515605378809051e-007	8.929803e+000	2.000000e-002
7.526347566309051e-007	9.470790e+000	2.000000e-002
7.537089753809050e-007	9.900006e+000	2.000000e-002
7.547831941309050e-007	1.022703e+001	2.000000e-002
7.558574128809050e-007	1.046446e+001	2.000000e-002
7.569316316309050e-007	1.062650e+001	2.000000e-002
7.580058503809049e-007	1.072772e+001	2.000000e-002
7.590800691309049e-007	1.078214e+001	2.000000e-002
7.601709490554115e-007	1.080820e+001	2.000000e-002
7.604489385192251e-007	1.080790e+001	2.000000e-002
7.607269279830385e-007	1.080672e+001	2.000000e-002
7.610049174468521e-007	1.080467e+001	2.000000e-002
7.612829069106656e-007	1.080175e+001	2.000000e-002
7.615608963744792e-007	1.079794e+001	2.000000e-002
7.618388858382926e-007	1.079327e+001	2.000000e-002
7.621168753021062e-007	1.078772e+001	2.000000e-002
7.627413182599816e-007	1.077417e+001	2.000000e-002
7.638155370099816e-007	1.074945e+001	2.000000e-002
7.648859285786856e-007	1.072549e+001	2.000000e-002
7.659601473286855e-007	1.070448e+001	2.000000e-002
7.670343660786855e-007	1.068815e+001	2.000000e-002
7.681085848286855e-007	1.067686e+001	2.000000e-002
7.689257812500001e-007	1.067128e+001	2.000000e-002
7.690964646856640e-007	1.067058e+001	2.000000e-002
7.694378315569919e-007	1.066986e+001	2.000000e-002
7.699999999999999e-007	1.066926e+001	2.000000e-002
7.700562168443008e-007	1.066929e+001	1.994378e-002
7.701686505329024e-007	1.066939e+001	1.983135e-002
7.703935179101056e-007	1.066966e+001	1.960648e-002
7.704497347544065e-007	1.066975e+001	1.955027e-002
7.705621684430080e-007	1.066999e+001	1.943783e-002
7.707870358202113e-007	1.067054e+001	1.921296e-002
7.708432526645122e-007	1.067070e+001	1.915675e-002
7.709556863531137e-007	1.067106e+001	1.904431e-002
7.711805537303170e-007	1.067190e+001	1.881945e-002
7.716302884847235e-007	1.067397e+001	1.836971e-002
7.725297579935365e-007	1.067885e+001	1.747024e-002
7.730937941515481e-007	1.068218e+001	1.690621e-002
7.734664015319411e-007	1.068432e+001	1.653360e-002
7.738152462572055e-007	1.068600e+001	1.618475e-002
7.741311540368625e-007	1.068703e+001	1.586885e-002
7.744136826777563e-007	1.068736e+001	1.558632e-002
7.746420387046570e-007	1.068697e+001	1.535796e-002
7.749128288529852e-007	1.068552e+001	1.508717e-002
7.751770033449652e-007	1.068256e+001	1.482300e-002
7.756309129911047e-007	1.067305e+001	1.436909e-002
7.761805965714702e-007	1.065053e+001	1.381940e-002
7.771069916490178e-007	1.057839e+001	1.289301e-002
7.781812103990178e-007	1.043218e+001	1.181879e-002
7.792554291490178e-007	1.019854e+001	1.074457e-002
7.803296478990177e-007	9.860165e+000	9.670353e-003
7.814038666490177e-007	9.408453e+000	8.596133e-003
7.824780853990177e-007	8.841351e+000	7.521915e-003
7.835523041490177e-007	8.184849e+000	6.447696e-003
7.836865814927677e-007	8.094499e+000	6.313419e-003
7.841565521958928e-007	7.756832e+000	5.843448e-003
7.846265228990178e-007	7.400687e+000	5.373477e-003
7.849622162583929e-007	7.135947e+000	5.037784e-003
7.850964936021429e-007	7.026892e+000	4.903506e-003
7.853650482896429e-007	6.804029e+000	4.634952e-003
7.860364350083929e-007	6.231106e+000	3.963565e-003
7.863049896958929e-007	5.991296e+000	3.695010e-003
7.868420990708929e-007	5.497193e+000	3.157901e-003
7.879163178208929e-007	4.470522e+000	2.083682e-003
7.889905365708929e-007	3.403785e+000	1.009463e-003
7.900000000000000e-007	2.373567e+000	3.469447e-017
7.901009463429107e-007	2.268106e+000	0.000000e+000
7.903028390287321e-007	2.056619e+000	0.000000e+000
7.907066244003750e-007	1.631239e+000	0.000000e+000
7.915141951436608e-007	7.758680e-001	0.000000e+000
7.916484724874109e-007	6.329638e-001	0.000000e+000
7.919841658467859e-007	2.744492e-001	0.000000e+000
7.920257223168093e-007	2.300019e-001	0.000000e+000
7.920672787868326e-007	1.855435e-001	0.000000e+000
7.921088352568560e-007	1.410739e-001	0.000000e+000
7.921503917268794e-007	9.659316e-002	0.000000e+000
7.921919481969028e-007	5.210131e-002	0.000000e+000
7.922335046669261e-007	7.598323e-003	0.000000e+000
7.922750611369495e-007	-3.691580e-002	0.000000e+000
7.924282212321643e-007	-2.011584e-001	0.000000e+000
7.925813813273792e-007	-3.654089e-001	0.000000e+000
7.927345414225940e-007	-5.296674e-001	0.000000e+000
7.928877015178090e-007	-6.939339e-001	0.000000e+000
7.930408616130238e-007	-8.582083e-001	0.000000e+000
7.931940217082387e-007	-1.022491e+000	0.000000e+000
7.933471818034535e-007	-1.186781e+000	0.000000e+000
7.944214005534534e-007	-2.332911e+000	0.000000e+000
7.954956193034534e-007	-3.461157e+000	0.000000e+000
7.965698380534534e-007	-4.552059e+000	0.000000e+000
7.976440568034534e-007	-5.582621e+000	0.000000e+000
7.987182755534533e-007	-6.530197e+000	0.000000e+000
7.997924943034533e-007	-7.376514e+000	0.000000e+000
8.008667130534533e-007	-8.109985e+000	0.000000e+000
8.019409318034532e-007	-8.726064e+000	0.000000e+000
8.030151505534532e-007	-9.226484e+000	0.000000e+000
8.040893693034532e-007	-9.618152e+000	0.000000e+000
8.051635880534532e-007	-9.911876e+000	0.000000e+000
8.062378068034531e-007	-1.012097e+001	0.000000e+000
8.073120255534531e-007	-1.025987e+001	0.000000e+000
8.083862443034531e-007	-1.034305e+001	0.000000e+000
8.094604630534531e-007	-1.038508e+001	0.000000e+000
8.103704098550537e-007	-1.039660e+001	0.000000e+000
8.112084584113826e-007	-1.039267e+001	0.000000e+000
8.120835986134664e-007	-1.037931e+001	0.000000e+000
8.131321330769304e-007	-1.035724e+001	0.000000e+000
8.141769284833950e-007	-1.033326e+001	0.000000e+000
8.152511472333949e-007	-1.030992e+001	0.000000e+000
8.163253659833949e-007	-1.029033e+001	0.000000e+000
8.173995847333949e-007	-1.027575e+001	0.000000e+000
8.184738034833949e-007	-1.026582e+001	0.000000e+000
8.189257812500000e-007	-1.026312e+001	0.000000e+000
8.190960444667897e-007	-1.026249e+001	0.000000e+000
8.194365709003690e-007	-1.026176e+001	0.000000e+000
8.200000000000000e-007	-1.026116e+001	0.000000e+000
8.200563429099631e-007	-1.026119e+001	5.634291e-005
8.201690287298892e-007	-1.026128e+001	1.690287e-004
8.204123987164784e-007	-1.026158e+001	4.123987e-004
8.204531274669115e-007	-1.026165e+001	4.531275e-004
8.204938562173446e-007	-1.026172e+001	4.938562e-004
8.205345849677777e-007	-1.026180e+001	5.345850e-004
8.205753137182107e-007	-1.026189e+001	5.753137e-004
8.206160424686438e-007	-1.026198e+001	6.160425e-004
8.206567712190770e-007	-1.026208e+001	6.567712e-004
8.206974999695101e-007	-1.026218e+001	6.975000e-004
8.207934911521057e-007	-1.026245e+001	7.934911e-004
8.209854735172968e-007	-1.026307e+001	9.854735e-004
8.213694382476791e-007	-1.026465e+001	1.369438e-003
8.221373677084437e-007	-1.026853e+001	2.137368e-003
8.228606998154336e-007	-1.027272e+001	2.860700e-003
8.233095851959725e-007	-1.027539e+001	3.309585e-003
8.236634544733037e-007	-1.027730e+001	3.663454e-003
8.239777305096815e-007	-1.027860e+001	3.977730e-003
8.242733738382268e-007	-1.027929e+001	4.273374e-003
8.245350883275789e-007	-1.027928e+001	4.535088e-003
8.247505503195155e-007	-1.027862e+001	4.750550e-003
8.250076433087637e-007	-1.027673e+001	5.007643e-003
8.253367693998563e-007	-1.027205e+001	5.336769e-003
8.258211052562753e-007	-1.025904e+001	5.821105e-003
8.264836977840067e-007	-1.022368e+001	6.483698e-003
8.275579165340067e-007	-1.011763e+001	7.557916e-003
8.286321352840066e-007	-9.938211e+000	8.632136e-003
8.297063540340066e-007	-9.662137e+000	9.706354e-003
8.307805727840066e-007	-9.276870e+000	1.078057e-002
8.318547915340066e-007	-8.776621e+000	1.185479e-002
8.329290102840065e-007	-8.161883e+000	1.292901e-002
8.341375063777566e-007	-7.363965e+000	1.413751e-002
8.344060610652566e-007	-7.160781e+000	1.440606e-002
8.349431704402565e-007	-6.734061e+000	1.494317e-002
8.360173891902565e-007	-5.840270e+000	1.601739e-002
8.364202212215066e-007	-5.482056e+000	1.642022e-002
8.380315493465065e-007	-3.953664e+000	1.803155e-002
8.389257812500000e-007	-3.063844e+000	1.892578e-002
8.400000000000000e-007	-1.966709e+000	2.000000e-002
8.401074218750000e-007	-1.854438e+000	2.000000e-002
8.403222656250000e-007	-1.629261e+000	2.000000e-002
8.407519531250000e-007	-1.176239e+000	2.000000e-002
8.416113281250000e-007	-2.651382e-001	2.000000e-002
8.417456054687500e-007	-1.221380e-001	2.000000e-002
8.417666823723631e-007	-9.962975e-002	2.000000e-002
8.417877592759760e-007	-7.711828e-002	2.000000e-002
8.418088361795891e-007	-5.460357e-002	2.000000e-002
8.418299130832021e-007	-3.208560e-002	2.000000e-002
8.418509899868151e-007	-9.564381e-003	2.000000e-002
8.418720668904281e-007	1.296009e-002	2.000000e-002
8.418931437940411e-007	3.548781e-002	2.000000e-002
8.419697987732020e-007	1.174646e-001	2.000000e-002
8.420464537523628e-007	1.994820e-001	2.000000e-002
8.421231087315237e-007	2.815400e-001	2.000000e-002
8.421997637106845e-007	3.636386e-001	2.000000e-002
8.422764186898454e-007	4.457777e-001	2.000000e-002
8.423530736690062e-007	5.279575e-001	2.000000e-002
8.424297286481671e-007	6.101779e-001	2.000000e-002
8.429668380231671e-007	1.186269e+000	2.000000e-002
8.440410567731671e-007	2.335511e+000	2.000000e-002
8.451152755231670e-007	3.472012e+000	2.000000e-002
8.461894942731670e-007	4.578665e+000	2.000000e-002
8.472637130231670e-007	5.633445e+000	2.000000e-002
8.483379317731670e-007	6.613061e+000	2.000000e-002
8.494121505231669e-007	7.497238e+000	2.000000e-002
8.504863692731669e-007	8.271814e+000	2.000000e-002
8.515605880231669e-007	8.929777e+000	2.000000e-002
8.526348067731669e-007	9.470759e+000	2.000000e-002
8.537090255231668e-007	9.899970e+000	2.000000e-002
8.547832442731668e-007	1.022699e+001	2.000000e-002
8.558574630231668e-007	1.046442e+001	2.000000e-002
8.569316817731668e-007	1.062645e+001	2.000000e-002
8.580059005231667e-007	1.072767e+001	2.000000e-002
8.590801192731667e-007	1.078209e+001	2.000000e-002
8.601709908124229e-007	1.080814e+001	2.000000e-002
8.604488363714966e-007	1.080784e+001	2.000000e-002
8.607266819305703e-007	1.080667e+001	2.000000e-002
8.610045274896439e-007	1.080462e+001	2.000000e-002
8.612823730487176e-007	1.080170e+001	2.000000e-002
8.615602186077912e-007	1.079790e+001	2.000000e-002
8.618380641668649e-007	1.079323e+001	2.000000e-002
8.621159097259386e-007	1.078769e+001	2.000000e-002
8.627400064299346e-007	1.077414e+001	2.000000e-002
8.638142251799346e-007	1.074942e+001	2.000000e-002
8.648844983714922e-007	1.072547e+001	2.000000e-002
8.659587171214922e-007	1.070445e+001	2.000000e-002
8.670329358714921e-007	1.068812e+001	2.000000e-002
8.681071546214921e-007	1.067681e+001	2.000000e-002
8.689257812500001e-007	1.067123e+001	2.000000e-002
8.690964315906446e-007	1.067053e+001	2.000000e-002
8.694377322719336e-007	1.066981e+001	2.000000e-002
8.699999999999999e-007	1.066921e+001	2.000000e-002
8.700562267728066e-007	1.066924e+001	1.994377e-002
8.701686803184199e-007	1.066933e+001	1.983132e-002
8.703935874096464e-007	1.066961e+001	1.960641e-002
8.704498141824530e-007	1.066970e+001	1.955019e-002
8.705622677280663e-007	1.066994e+001	1.943773e-002
8.707871748192929e-007	1.067048e+001	1.921283e-002
8.708434015920995e-007	1.067064e+001	1.915660e-002
8.709558551377128e-007	1.067101e+001	1.904414e-002
8.711807622289394e-007	1.067185e+001	1.881924e-002
8.716305764113925e-007	1.067391e+001	1.836942e-002
8.725302047762987e-007	1.067880e+001	1.746980e-002
8.730941248730728e-007	1.068213e+001	1.690588e-002
8.734666533291553e-007	1.068427e+001	1.653335e-002
8.738154804738512e-007	1.068595e+001	1.618452e-002
8.741313806896383e-007	1.068698e+001	1.586862e-002
8.744138808635915e-007	1.068730e+001	1.558612e-002
8.746421764136829e-007	1.068691e+001	1.535782e-002
8.749130382117065e-007	1.068546e+001	1.508696e-002
8.751773195786325e-007	1.068251e+001	1.482268e-002
8.756313594897799e-007	1.067299e+001	1.436864e-002
8.761812184018908e-007	1.065045e+001	1.381878e-002
8.771080140816616e-007	1.057823e+001	1.289199e-002
8.781822328316616e-007	1.043195e+001	1.181777e-002
8.792564515816615e-007	1.019821e+001	1.074355e-002
8.803306703316615e-007	9.859736e+000	9.669330e-003
8.814048890816615e-007	9.407915e+000	8.595111e-003
8.824791078316615e-007	8.840703e+000	7.520892e-003
8.835533265816614e-007	8.184097e+000	6.446674e-003
8.836876039254115e-007	8.093734e+000	6.312396e-003
8.841575746285366e-007	7.756026e+000	5.842425e-003
8.846275453316616e-007	7.399840e+000	5.372455e-003
8.849632386910366e-007	7.135074e+000	5.036762e-003
8.850975160347867e-007	7.026009e+000	4.902484e-003
8.853660707222867e-007	6.803126e+000	4.633929e-003
8.860374574410367e-007	6.230156e+000	3.962542e-003
8.863060121285367e-007	5.990330e+000	3.693988e-003
8.868431215035367e-007	5.496197e+000	3.156879e-003
8.879173402535367e-007	4.469475e+000	2.082660e-003
8.889915590035366e-007	3.402704e+000	1.008441e-003
8.900000000000000e-007	2.373513e+000	3.469447e-017
8.901008440996463e-007	2.268159e+000	0.000000e+000
8.903025322989389e-007	2.056887e+000	0.000000e+000
8.907059086975243e-007	1.631942e+000	0.000000e+000
8.915126614946950e-007	7.774470e-001	0.000000e+000
8.916469388384451e-007	6.345446e-001	0.000000e+000
8.919826321978201e-007	2.760345e-001	0.000000e+000
8.920244004618747e-007	2.313611e-001	0.000000e+000
8.920661687259293e-007	1.866764e-001	0.000000e+000
8.921079369899838e-007	1.419805e-001	0.000000e+000
8.921497052540383e-007	9.727326e-002	0.000000e+000
8.921914735180929e-007	5.255481e-002	0.000000e+000
8.922332417821475e-007	7.825099e-003	0.000000e+000
8.922750100462020e-007	-3.691587e-002	0.000000e+000
8.924281701414169e-007	-2.011584e-001	0.000000e+000
8.925813302366318e-007	-3.654089e-001	0.000000e+000
8.927344903318466e-007	-5.296674e-001	0.000000e+000
8.928876504270615e-007	-6.939339e-001	0.000000e+000
8.930408105222763e-007	-8.582084e-001	0.000000e+000
8.931939706174912e-007	-1.022491e+000	0.000000e+000
8.933471307127060e-007	-1.186781e+000	0.000000e+000
8.944213494627059e-007	-2.332913e+000	0.000000e+000
8.954955682127059e-007	-3.461160e+000	0.000000e+000
8.965697869627059e-007	-4.552065e+000	0.000000e+000
8.976440057127059e-007	-5.582630e+000	0.000000e+000
8.987182244627058e-007	-6.530210e+000	0.000000e+000
8.997924432127058e-007	-7.376532e+000	0.000000e+000
9.008666619627058e-007	-8.110007e+000	0.000000e+000
9.019408807127058e-007	-8.726090e+000	0.000000e+000
9.030150994627057e-007	-9.226516e+000	0.000000e+000
9.040893182127057e-007	-9.618188e+000	0.000000e+000
9.051635369627057e-007	-9.911917e+000	0.000000e+000
9.062377557127057e-007	-1.012101e+001	0.000000e+000
9.073119744627056e-007	-1.025992e+001	0.000000e+000
9.083861932127056e-007	-1.034309e+001	0.000000e+000
9.094604119627056e-007	-1.038513e+001	0.000000e+000
9.103704077047111e-007	-1.039666e+001	0.000000e+000
9.112084600210979e-007	-1.039272e+001	0.000000e+000
9.120836084699176e-007	-1.037936e+001	0.000000e+000
9.131321275546523e-007	-1.035729e+001	0.000000e+000
9.141769270640333e-007	-1.033331e+001	0.000000e+000
9.152511458140333e-007	-1.030997e+001	0.000000e+000
9.163253645640332e-007	-1.029038e+001	0.000000e+000
9.173995833140332e-007	-1.027580e+001	0.000000e+000
9.184738020640332e-007	-1.026587e+001	0.000000e+000
9.189257812500000e-007	-1.026317e+001	0.000000e+000
9.190960416280663e-007	-1.026254e+001	0.000000e+000
9.194365623841989e-007	-1.026182e+001	0.000000e+000
9.200000000000000e-007	-1.026121e+001	0.000000e+000
9.200563437615801e-007	-1.026124e+001	5.634376e-005
9.201690312847403e-007	-1.026134e+001	1.690313e-004
9.204124045993431e-007	-1.026163e+001	4.124046e-004
9.204531322568012e-007	-1.026170e+001	4.531322e-004
9.204938599142593e-007	-1.026178e+001	4.938599e-004
9.205345875717174e-007	-1.026186e+001	5.345875e-004
9.205753152291755e-007	-1.026194e+001	5.753152e-004
9.206160428866336e-007	-1.026204e+001	6.160429e-004
9.206567705440917e-007	-1.026213e+001	6.567705e-004
9.206974982015499e-007	-1.026224e+001	6.974982e-004
9.207934889657221e-007	-1.026250e+001	7.934890e-004
9.209854704940665e-007	-1.026313e+001	9.854705e-004
9.213694335507553e-007	-1.026470e+001	1.369434e-003
9.221373596641328e-007	-1.026859e+001	2.137360e-003
9.228606944239632e-007	-1.027277e+001	2.860694e-003
9.233095808956816e-007	-1.027544e+001	3.309581e-003
9.236634501860850e-007	-1.027735e+001	3.663450e-003
9.239777265594594e-007	-1.027866e+001	3.977727e-003
9.242733700442567e-007	-1.027935e+001	4.273370e-003
9.245350847099885e-007	-1.027934e+001	4.535085e-003
9.247505456278912e-007	-1.027867e+001	4.750546e-003
9.250076403150785e-007	-1.027679e+001	5.007640e-003
9.253367639273966e-007	-1.027210e+001	5.336764e-003
9.258210999727002e-007	-1.025909e+001	5.821100e-003
9.264836879742788e-007	-1.022373e+001	6.483688e-003
9.275579067242788e-007	-1.011768e+001	7.557907e-003
9.286321254742788e-007	-9.938267e+000	8.632125e-003
9.297063442242788e-007	-9.662193e+000	9.706344e-003
9.307805629742787e-007	-9.276927e+000	1.078056e-002
9.318547817242787e-007	-8.776680e+000	1.185478e-002
9.329290004742787e-007	-8.161942e+000	1.292900e-002
9.341374965680287e-007	-7.364025e+000	1.413750e-002
9.344060512555287e-007	-7.160842e+000	1.440605e-002
9.349431606305287e-007	-6.734122e+000	1.494316e-002
9.360173793805287e-007	-5.840332e+000	1.601738e-002
9.364202114117787e-007	-5.482118e+000	1.642021e-002
9.380315395367787e-007	-3.953727e+000	1.803154e-002
9.389257812500000e-007	-3.063897e+000	1.892578e-002
9.400000000000000e-007	-1.966762e+000	2.000000e-002
9.401074218750000e-007	-1.854491e+000	2.000000e-002
9.403222656250000e-007	-1.629314e+000	2.000000e-002
9.407519531250000e-007	-1.176292e+000	2.000000e-002
9.416113281250000e-007	-2.651912e-001	2.000000e-002
9.417456054687500e-007	-1.221909e-001	2.000000e-002
9.417666894415015e-007	-9.967513e-002	2.000000e-002
9.417877734142530e-007	-7.715611e-002	2.000000e-002
9.418088573870046e-007	-5.463384e-002	2.000000e-002
9.418299413597562e-007	-3.210832e-002	2.000000e-002
9.418510253325077e-007	-9.579540e-003	2.000000e-002
9.418721093052592e-007	1.295249e-002	2.000000e-002
9.418931932780107e-007	3.548778e-002	2.000000e-002
9.419698482571716e-007	1.174646e-001	2.000000e-002
9.420465032363324e-007	1.994821e-001	2.000000e-002
9.421231582154933e-007	2.815401e-001	2.000000e-002
9.421998131946541e-007	3.636387e-001	2.000000e-002
9.422764681738150e-007	4.457779e-001	2.000000e-002
9.423531231529758e-007	5.279576e-001	2.000000e-002
9.424297781321367e-007	6.101780e-001	2.000000e-002
9.429668875071367e-007	1.186269e+000	2.000000e-002
9.440411062571367e-007	2.335511e+000	2.000000e-002
9.451153250071366e-007	3.472011e+000	2.000000e-002
9.461895437571366e-007	4.578662e+000	2.000000e-002
9.472637625071366e-007	5.633439e+000	2.000000e-002
9.483379812571366e-007	6.613052e+000	2.000000e-002
9.494122000071365e-007	7.497223e+000	2.000000e-002
9.504864187571365e-007	8.271794e+000	2.000000e-002
9.515606375071365e-007	8.929752e+000	2.000000e-002
9.526348562571365e-007	9.470729e+000	2.000000e-002
9.537090750071365e-007	9.899935e+000	2.000000e-002
9.547832937571365e-007	1.022695e+001	2.000000e-002
9.558575125071365e-007	1.046437e+001	2.000000e-002
9.569317312571365e-007	1.062641e+001	2.000000e-002
9.580059500071364e-007	1.072762e+001	2.000000e-002
9.590801687571364e-007	1.078203e+001	2.000000e-002
9.601710320292435e-007	1.080809e+001	2.000000e-002
9.604487357030158e-007	1.080779e+001	2.000000e-002
9.607264393767881e-007	1.080662e+001	2.000000e-002
9.610041430505603e-007	1.080457e+001	2.000000e-002
9.612818467243324e-007	1.080165e+001	2.000000e-002
9.615595503981047e-007	1.079786e+001	2.000000e-002
9.618372540718770e-007	1.079319e+001	2.000000e-002
9.621149577456493e-007	1.078765e+001	2.000000e-002
9.627387130135399e-007	1.077412e+001	2.000000e-002
9.638129317635398e-007	1.074940e+001	2.000000e-002
9.648830880618723e-007	1.072544e+001	2.000000e-002
9.659573068118723e-007	1.070442e+001	2.000000e-002
9.670315255618722e-007	1.068808e+001	2.000000e-002
9.681057443118722e-007	1.067677e+001	2.000000e-002
9.689257812500001e-007	1.067118e+001	2.000000e-002
9.690963991652838e-007	1.067048e+001	2.000000e-002
9.694376349958513e-007	1.066975e+001	2.000000e-002
9.700000000000000e-007	1.066915e+001	2.000000e-002
9.700562365004149e-007	1.066919e+001	1.994376e-002
9.701687095012446e-007	1.066928e+001	1.983129e-002
9.703936555029040e-007	1.066955e+001	1.960634e-002
9.704498920033189e-007	1.066965e+001	1.955011e-002
9.705623650041486e-007	1.066988e+001	1.943764e-002
9.707873110058080e-007	1.067043e+001	1.921269e-002
9.708435475062229e-007	1.067059e+001	1.915645e-002
9.709560205070526e-007	1.067095e+001	1.904398e-002
9.711809665087120e-007	1.067179e+001	1.881903e-002
9.716308585120311e-007	1.067386e+001	1.836914e-002
9.725306425186692e-007	1.067875e+001	1.746936e-002
9.730944489199310e-007	1.068208e+001	1.690555e-002
9.734669000744431e-007	1.068422e+001	1.653310e-002
9.738157099934155e-007	1.068590e+001	1.618429e-002
9.741316027824359e-007	1.068693e+001	1.586840e-002
9.744140750348216e-007	1.068725e+001	1.558593e-002
9.746423112841851e-007	1.068686e+001	1.535769e-002
9.749132432539460e-007	1.068541e+001	1.508676e-002
9.751776291954055e-007	1.068245e+001	1.482237e-002
9.756317966996850e-007	1.067292e+001	1.436820e-002
9.761818272481816e-007	1.065036e+001	1.381817e-002
9.771090154410987e-007	1.057807e+001	1.289098e-002
9.781832341910987e-007	1.043172e+001	1.181677e-002
9.792574529410986e-007	1.019790e+001	1.074255e-002
9.803316716910986e-007	9.859316e+000	9.668328e-003
9.814058904410986e-007	9.407387e+000	8.594110e-003
9.824801091910985e-007	8.840069e+000	7.519891e-003
9.835543279410985e-007	8.183360e+000	6.445672e-003
9.836886052848486e-007	8.092984e+000	6.311395e-003
9.841585759879737e-007	7.755236e+000	5.841424e-003
9.846285466910989e-007	7.399011e+000	5.371453e-003
9.849642400504740e-007	7.134218e+000	5.035760e-003
9.850985173942241e-007	7.025144e+000	4.901483e-003
9.853670720817242e-007	6.802241e+000	4.632928e-003
9.860384588004742e-007	6.229226e+000	3.961541e-003
9.863070134879743e-007	5.989383e+000	3.692986e-003
9.868441228629743e-007	5.495220e+000	3.155877e-003
9.879183416129743e-007	4.468448e+000	2.081658e-003
9.889925603629743e-007	3.401646e+000	1.007440e-003
9.900000000000001e-007	2.373459e+000	0.000000e+000
9.901007439637027e-007	2.268210e+000	0.000000e+000
9.903022318911079e-007	2.057148e+000	0.000000e+000
9.907052077459182e-007	1.632630e+000	0.000000e+000
9.915111594555389e-007	7.789932e-001	0.000000e+000
9.916454367992889e-007	6.360925e-001	0.000000e+000
9.919811301586640e-007	2.775866e-001	0.000000e+000
9.920231058007892e-007	2.326919e-001	0.000000e+000
9.920650814429147e-007	1.877857e-001	0.000000e+000
9.921070570850399e-007	1.428681e-001	0.000000e+000
9.921490327271651e-007	9.793919e-002	0.000000e+000
9.921910083692903e-007	5.299887e-002	0.000000e+000
9.922329840114157e-007	8.047163e-003	0.000000e+000
9.922749596535409e-007	-3.691593e-002	0.000000e+000
9.924281197487558e-007	-2.011584e-001	0.000000e+000
9.925812798439705e-007	-3.654089e-001	0.000000e+000
9.927344399391854e-007	-5.296674e-001	0.000000e+000
9.928876000344003e-007	-6.939339e-001	0.000000e+000
9.930407601296152e-007	-8.582084e-001	0.000000e+000
9.931939202248299e-007	-1.022491e+000	0.000000e+000
9.933470803200448e-007	-1.186782e+000	0.000000e+000
9.944212990700448e-007	-2.332915e+000	0.000000e+000
9.954955178200448e-007	-3.461164e+000	0.000000e+000
9.965697365700447e-007	-4.552072e+000	0.000000e+000
9.976439553200447e-007	-5.582639e+000	0.000000e+000
9.987181740700447e-007	-6.530223e+000	0.000000e+000
9.997923928200447e-007	-7.376549e+000	0.000000e+000
1.000866611570045e-006	-8.110029e+000	0.000000e+000
1.001940830320045e-006	-8.726117e+000	0.000000e+000
1.003015049070045e-006	-9.226547e+000	0.000000e+000
1.004089267820045e-006	-9.618223e+000	0.000000e+000
1.005163486570045e-006	-9.911957e+000	0.000000e+000
1.006237705320045e-006	-1.012105e+001	0.000000e+000
1.007311924070045e-006	-1.025996e+001	0.000000e+000
1.008386142820044e-006	-1.034314e+001	0.000000e+000
1.009460361570044e-006	-1.038518e+001	0.000000e+000
1.010370405452939e-006	-1.039671e+001	0.000000e+000
1.011208461440207e-006	-1.039277e+001	0.000000e+000
1.012083617970041e-006	-1.037942e+001	0.000000e+000
1.013132121979597e-006	-1.035734e+001	0.000000e+000
1.014176925523165e-006	-1.033336e+001	0.000000e+000
1.015251144273165e-006	-1.031003e+001	0.000000e+000
1.016325363023165e-006	-1.029043e+001	0.000000e+000
1.017399581773165e-006	-1.027585e+001	0.000000e+000
1.018473800523165e-006	-1.026593e+001	0.000000e+000
1.018925781250000e-006	-1.026322e+001	0.000000e+000
1.019096038546330e-006	-1.026259e+001	0.000000e+000
1.019436553138990e-006	-1.026187e+001	0.000000e+000
1.020056344686101e-006	-1.026130e+001	0.000000e+000
1.020394412802707e-006	-1.026173e+001	0.000000e+000
1.020845170291516e-006	-1.026295e+001	0.000000e+000
1.021746685269132e-006	-1.026682e+001	0.000000e+000
1.022820904019132e-006	-1.027315e+001	0.000000e+000
1.023895122769132e-006	-1.028079e+001	0.000000e+000
1.024969341519132e-006	-1.028902e+001	0.000000e+000
1.026043560269132e-006	-1.029716e+001	0.000000e+000
1.027117779019132e-006	-1.030472e+001	0.000000e+000
1.028191997769132e-006	-1.031136e+001	0.000000e+000
1.029266216519132e-006	-1.031688e+001	0.000000e+000
1.030340435269132e-006	-1.032124e+001	0.000000e+000
1.031414654019132e-006	-1.032447e+001	0.000000e+000
1.032488872769132e-006	-1.032668e+001	0.000000e+000
1.033563091519132e-006	-1.032801e+001	0.000000e+000
1.034637310269132e-006	-1.032864e+001	0.000000e+000
1.035711529019132e-006	-1.032873e+001	0.000000e+000
1.036785747769132e-006	-1.032844e+001	0.000000e+000
1.037859966519132e-006	-1.032793e+001	0.000000e+000
1.038934185269132e-006	-1.032730e+001	0.000000e+000
1.040322265625000e-006	-1.032644e+001	0.000000e+000
1.041611328125000e-006	-1.032574e+001	0.000000e+000
1.043759765625000e-006	-1.032489e+001	0.000000e+000
1.045908203125000e-006	-1.032446e+001	0.000000e+000
1.048056640625000e-006	-1.032438e+001	0.000000e+000
1.049591238839285e-006	-1.032452e+001	0.000000e+000
1.051125837053571e-006	-1.032464e+001	0.000000e+000
1.052660435267857e-006	-1.032476e+001	0.000000e+000
1.054195033482143e-006	-1.032487e+001	0.000000e+000
1.055729631696428e-006	-1.032497e+001	0.000000e+000
1.057264229910714e-006	-1.032506e+001	0.000000e+000
1.058798828125000e-006	-1.032514e+001	0.000000e+000
1.099619140624999e-006	-1.032510e+001	0.000000e+000
1.100000000000000e-006	-1.032510e+001	0.000000e+000
