#
## Alias OBJ Material File
# Exported from SketchUp, (c) 2000-2012 Trimble Navigation Limited

newmtl M_0099_LightSteelBlue
Ka 0.000000 0.000000 0.000000
Kd 0.690196 0.768627 0.870588
Ks 0.330000 0.330000 0.330000

newmtl M_0095_LightBlue
Ka 0.000000 0.000000 0.000000
Kd 0.678431 0.847059 0.901961
Ks 0.330000 0.330000 0.330000

