0.000E+00	0
5.000E-08	0
5.250E-08	0.02
1.000E-07	0.02
1.025E-07	0
2.000E-07	0
2.025E-07	0.00083
2.050E-07	0.00166
2.075E-07	0.00249
2.100E-07	0.00332
2.125E-07	0.00415
2.150E-07	0.00498
2.175E-07	0.00581
2.200E-07	0.00664
2.225E-07	0.00747
2.250E-07	0.0083
2.275E-07	0.00913
2.300E-07	0.00996
2.325E-07	0.01079
2.350E-07	0.01162
2.375E-07	0.01245
2.400E-07	0.01328
2.425E-07	0.01411
2.450E-07	0.01494
2.475E-07	0.01577
2.500E-07	0.0166
2.525E-07	0.01743
2.550E-07	0.01826
2.575E-07	0.01909
2.600E-07	0.01992
2.625E-07	0.02
3.000E-07	0.02
3.025E-07	0.01992
3.050E-07	0.01909
3.075E-07	0.01826
3.100E-07	0.01743
3.125E-07	0.0166
3.150E-07	0.01577
3.175E-07	0.01494
3.200E-07	0.01411
3.225E-07	0.01328
3.250E-07	0.01245
3.275E-07	0.01162
3.300E-07	0.01079
3.325E-07	0.00996
3.350E-07	0.00913
3.375E-07	0.0083
3.400E-07	0.00747
3.425E-07	0.00664
3.450E-07	0.00581
3.475E-07	0.00498
3.500E-07	0.00415
3.525E-07	0.00332
3.550E-07	0.00249
3.575E-07	0.00166
3.600E-07	0.00083
3.625E-07	0
5.000E-07	0
5.025E-07	0.00083
5.050E-07	0.00166
5.075E-07	0.00249
5.100E-07	0.00332
5.125E-07	0.00415
5.150E-07	0.00498
5.175E-07	0.00581
5.200E-07	0.00664
5.225E-07	0.00747
5.250E-07	0.0083
5.275E-07	0.00913
5.300E-07	0.00996
5.325E-07	0.01
6.000E-07	0.01
6.025E-07	0.00996
6.050E-07	0.00913
6.075E-07	0.0083
6.100E-07	0.00747
6.125E-07	0.00664
6.150E-07	0.00581
6.175E-07	0.00498
6.200E-07	0.00415
6.225E-07	0.00332
6.250E-07	0.00249
6.275E-07	0.00166
6.300E-07	0.00083
6.325E-07	0
8.000E-07	0
8.025E-07	0.00083
8.050E-07	0.00166
8.075E-07	0.00249
8.100E-07	0.00332
8.125E-07	0.00415
8.150E-07	0.00498
8.175E-07	0.005
9.000E-07	0.005
9.025E-07	0.00498
9.050E-07	0.00415
9.075E-07	0.00332
9.100E-07	0.00249
9.125E-07	0.00166
9.150E-07	0.00083
9.175E-07	0
1.000E-06	0
